AI_TASK,MODEL,VERSION,INPUT_TILE,PLATFORM,ENGINE,PROCESSOR,PRECISION,QUALITY_METRIC,QUALITY_VALUE,GFLOP,#PARAMS,STORAGE,PREPROCESSING_TIME,INFERENCE_TIME,POSTPROCESSING_TIME,LATENCY,THROUGHPUT,DMIPS,CPU_MEM,CPU_MEM_PEAK,GPU_MEM,GPU_MEM_PEAK,MEMORY_BANDWIDTH,MEMORY_BANDWIDTH_PEAK,CPU_LOAD,GPU_LOAD,NPU_LOAD,CPU_TEMP,GPU_TEMP,POWER_CONSUMPTION,ENERGY_EFFICIENCY,NOTES,UPDATED BY,LAST UPDATE
3D-face-landmarks,face-landmarks-detection-3ddfa,default,120x120,imx8m-nano,lne,GPU/CPU,F32,/,/,0.4,3.3,13.0,78.0,412.0,0.9,491.0,2.0,6843.3,63.4,1.0,0.0,0.0,0.0,0.0,100.0,0.0,0.0,72.3,0.0,0.0,0,,,
3D-face-landmarks,face-landmarks-detection-3ddfa,default,120x120,imx8m-nano,ncnn,GPU,F16,/,/,0.4,3.3,6.5,73.1,373.1,2.4,448.7,2.2,7489.0,67.2,1.1,0.0,0.0,0.0,0.0,100.0,0.0,0.0,76.1,0.0,0.0,0,,,
3D-face-landmarks,face-landmarks-detection-3ddfa,default,120x120,imx8m-nano,ncnn,GPU,F32,/,/,0.4,3.3,13.0,77.9,371.6,3.2,452.7,2.2,7422.5,67.6,1.1,0.0,0.0,0.0,0.0,100.0,0.0,0.0,75.9,0.0,0.0,0,,,
bodypose-estimation,body-pose-openpifpaf,resnet50-012-13,160x120,imx8m-nano,lne,GPU/CPU,F32,/,/,13.0,27.4,109.7,2.6,1691.4,15.7,1709.7,0.6,1965.3,46.3,0.7,0.0,0.0,0.0,0.0,53.9,0.0,0.0,64.5,0.0,0.0,0,,,
bodypose-estimation,body-pose-openpifpaf,resnet50-012-13,320x240,imx8m-nano,lne,GPU/CPU,F32,/,/,51.5,27.4,109.7,7.3,6661.1,28.6,6696.9,0.1,501.7,51.0,0.8,0.0,0.0,0.0,0.0,54.4,0.0,0.0,65.9,0.0,0.0,0,,,
bodypose-estimation,body-pose-openpifpaf,resnet50-012-13,640x480,imx8m-nano,lne,GPU/CPU,F32,/,/,205.8,27.5,109.9,27.3,27110.3,191.4,27329.1,0.0,122.9,67.7,1.1,0.0,0.0,0.0,0.0,54.3,0.0,0.0,66.4,0.0,0.0,0,,,
bodypose-estimation,body-pose-openpifpaf,resnet50-012,161x129,imx8m-nano,lne,GPU/CPU,F32,/,/,14.9,25.6,102.3,14.9,2011.1,23.9,2049.9,0.5,1639.1,45.5,0.7,0.0,0.0,0.0,0.0,54.0,0.0,0.0,63.1,0.0,0.0,0,,,
bodypose-estimation,body-pose-openpifpaf,resnet50-012,321x241,imx8m-nano,lne,GPU/CPU,F32,/,/,53.1,25.6,102.3,26.0,7037.7,64.2,7127.9,0.1,471.4,50.3,0.8,0.0,0.0,0.0,0.0,54.1,0.0,0.0,64.4,0.0,0.0,0,,,
bodypose-estimation,body-pose-openpifpaf,resnet50-012,321x321,imx8m-nano,lne,GPU/CPU,F32,/,/,70.3,25.6,102.4,36.5,9413.5,126.7,9576.6,0.1,350.9,51.0,0.8,0.0,0.0,0.0,0.0,54.2,0.0,0.0,64.7,0.0,0.0,0,,,
bodypose-estimation,body-pose-openpifpaf,resnet50-012,641x481,imx8m-nano,lne,GPU/CPU,F32,/,/,206.9,25.6,102.4,38.9,27345.0,331.5,27715.3,0.0,121.2,66.4,1.1,0.0,0.0,0.0,0.0,54.2,0.0,0.0,66.4,0.0,0.0,0,,,
face-landmarks-detection,face-landmarks-detection-retinaface,mobile0.25mod4lite-12-48,320x320,imx8m-nano,lne,GPU/CPU,F32,AP-medium,43.8,0.3,0.2,0.9,15.4,106.3,10.9,132.7,7.5,25327.2,21.4,0.3,0.0,0.0,0.0,0.0,49.3,0.0,0.0,53.8,0.0,0.0,0,,,
face-landmarks-detection,face-landmarks-detection-retinaface,mobile0.25mod4lite-12-48,320x320,imx8m-nano,ncnn,GPU,F16,AP-medium,43.8,0.3,0.2,0.5,11.9,818.2,92.4,922.4,1.1,3642.5,28.9,0.5,0.0,0.0,0.0,0.0,30.0,0.0,0.0,57.0,0.0,0.0,0,,,
face-landmarks-detection,face-landmarks-detection-retinaface,mobile0.25mod4lite-12-48,320x320,imx8m-nano,ncnn,GPU,F32,AP-medium,43.8,0.3,0.2,0.9,11.9,817.9,92.4,922.2,1.1,3643.5,29.5,0.5,0.0,0.0,0.0,0.0,30.0,0.0,0.0,56.4,0.0,0.0,0,,,
face-landmarks-detection,face-landmarks-detection-retinaface,mobile0.25mod4lite-12-48,320x185,imx8m-nano,lne,GPU/CPU,F32,AP-medium,31.9,0.2,0.2,0.9,8.2,60.8,5.5,74.6,13.4,45030.4,21.6,0.3,0.0,0.0,0.0,0.0,47.1,0.0,0.0,52.3,0.0,0.0,0,,,
face-landmarks-detection,face-landmarks-detection-retinaface,mobile0.25mod4lite-12-48,320x185,imx8m-nano,ncnn,GPU,F16,AP-medium,31.9,0.2,0.2,0.5,7.4,490.9,56.7,555.1,1.8,6052.7,29.3,0.5,0.0,0.0,0.0,0.0,30.4,0.0,0.0,55.9,0.0,0.0,0,,,
face-landmarks-detection,face-landmarks-detection-retinaface,mobile0.25mod4lite-12-48,320x185,imx8m-nano,ncnn,GPU,F32,AP-medium,31.9,0.2,0.2,0.9,7.5,491.1,56.8,555.3,1.8,6050.8,29.4,0.5,0.0,0.0,0.0,0.0,30.4,0.0,0.0,55.0,0.0,0.0,0,,,
face-landmarks-detection,face-landmarks-detection-retinaface,mobile0.25mod4lite-12-48,320x250,imx8m-nano,lne,GPU/CPU,F32,AP-medium,41.7,0.3,0.2,0.9,12.5,81.7,8.8,103.0,9.7,32633.4,21.5,0.3,0.0,0.0,0.0,0.0,48.3,0.0,0.0,53.2,0.0,0.0,0,,,
face-landmarks-detection,face-landmarks-detection-retinaface,mobile0.25mod4lite-12-48,320x250,imx8m-nano,ncnn,GPU,F16,AP-medium,41.7,0.3,0.2,0.5,9.5,651.7,75.4,736.6,1.4,4561.7,29.5,0.5,0.0,0.0,0.0,0.0,30.1,0.0,0.0,57.2,0.0,0.0,0,,,
face-landmarks-detection,face-landmarks-detection-retinaface,mobile0.25mod4lite-12-48,320x250,imx8m-nano,ncnn,GPU,F32,AP-medium,41.7,0.3,0.2,0.9,9.4,651.6,75.4,736.4,1.4,4562.5,29.6,0.5,0.0,0.0,0.0,0.0,30.1,0.0,0.0,56.3,0.0,0.0,0,,,
face-landmarks-detection,face-landmarks-detection-retinaface,mobile0.25mod4lite-12-48,640x640,imx8m-nano,lne,GPU/CPU,F32,AP-medium,73.9,1.3,0.2,0.9,42.2,487.5,36.0,565.7,1.8,5939.9,25.7,0.4,0.0,0.0,0.0,0.0,52.5,0.0,0.0,56.9,0.0,0.0,0,,,
face-landmarks-detection,face-landmarks-detection-retinaface,mobile0.25mod4lite-12-48,640x640,imx8m-nano,ncnn,GPU,F16,AP-medium,73.9,1.3,0.2,0.5,42.7,3229.8,362.6,3635.2,0.3,924.3,31.1,0.5,0.0,0.0,0.0,0.0,29.6,0.0,0.0,60.8,0.0,0.0,0,,,
face-landmarks-detection,face-landmarks-detection-retinaface,mobile0.25mod4lite-12-48,640x640,imx8m-nano,ncnn,GPU,F32,AP-medium,73.9,1.3,0.2,0.9,43.5,3229.5,363.0,3636.0,0.3,924.1,31.1,0.5,0.0,0.0,0.0,0.0,29.6,0.0,0.0,59.9,0.0,0.0,0,,,
face-landmarks-detection,face-landmarks-detection-retinaface,mobile0.25mod4lite-12-48,640x380,imx8m-nano,lne,GPU/CPU,F32,AP-medium,67.2,0.8,0.2,0.9,26.6,268.8,21.7,317.1,3.2,10597.3,24.1,0.4,0.0,0.0,0.0,0.0,51.6,0.0,0.0,56.0,0.0,0.0,0,,,
face-landmarks-detection,face-landmarks-detection-retinaface,mobile0.25mod4lite-12-48,640x380,imx8m-nano,ncnn,GPU,F16,AP-medium,67.2,0.8,0.2,0.5,27.0,1936.4,219.6,2183.0,0.5,1539.1,30.7,0.5,0.0,0.0,0.0,0.0,29.8,0.0,0.0,59.7,0.0,0.0,0,,,
face-landmarks-detection,face-landmarks-detection-retinaface,mobile0.25mod4lite-12-48,640x380,imx8m-nano,ncnn,GPU,F32,AP-medium,67.2,0.8,0.2,0.9,27.1,1936.9,219.3,2183.2,0.5,1539.0,30.9,0.5,0.0,0.0,0.0,0.0,29.8,0.0,0.0,59.4,0.0,0.0,0,,,
face-landmarks-detection,face-landmarks-detection-retinaface,mobile0.25mod4lite-12-48,640x480,imx8m-nano,lne,GPU/CPU,F32,AP-medium,72.3,1.0,0.2,0.9,32.6,351.8,26.8,411.2,2.4,8170.4,25.5,0.4,0.0,0.0,0.0,0.0,52.2,0.0,0.0,56.7,0.0,0.0,0,,,
face-landmarks-detection,face-landmarks-detection-retinaface,mobile0.25mod4lite-12-48,640x480,imx8m-nano,ncnn,GPU,F16,AP-medium,72.3,1.0,0.2,0.5,33.1,2420.2,242.7,2696.0,0.4,1246.3,31.3,0.5,0.0,0.0,0.0,0.0,29.7,0.0,0.0,60.2,0.0,0.0,0,,,
face-landmarks-detection,face-landmarks-detection-retinaface,mobile0.25mod4lite-12-48,640x480,imx8m-nano,ncnn,GPU,F32,AP-medium,72.3,1.0,0.2,0.9,32.8,2420.5,242.6,2695.8,0.4,1246.4,31.3,0.5,0.0,0.0,0.0,0.0,29.7,0.0,0.0,59.2,0.0,0.0,0,,,
face-landmarks-detection,face-landmarks-detection-retinaface,mobile0.25mod4lite-16-64,320x320,imx8m-nano,lne,GPU/CPU,F32,AP-medium,53.4,0.5,0.4,1.7,15.5,131.6,10.9,158.1,6.3,21251.5,23.4,0.3,0.0,0.0,0.0,0.0,49.6,0.0,0.0,54.4,0.0,0.0,0,,,
face-landmarks-detection,face-landmarks-detection-retinaface,mobile0.25mod4lite-16-64,320x320,imx8m-nano,ncnn,GPU,F16,AP-medium,53.4,0.5,0.4,0.8,11.8,929.5,101.4,1042.7,1.0,3222.4,31.9,0.5,0.0,0.0,0.0,0.0,29.8,0.0,0.0,58.3,0.0,0.0,0,,,
face-landmarks-detection,face-landmarks-detection-retinaface,mobile0.25mod4lite-16-64,320x320,imx8m-nano,ncnn,GPU,F32,AP-medium,53.4,0.5,0.4,1.7,11.6,929.8,101.3,1042.7,1.0,3222.3,31.9,0.5,0.0,0.0,0.0,0.0,29.8,0.0,0.0,56.5,0.0,0.0,0,,,
face-landmarks-detection,face-landmarks-detection-retinaface,mobile0.25mod4lite-16-64,320x185,imx8m-nano,lne,GPU/CPU,F32,AP-medium,42.2,0.3,0.4,1.7,8.2,75.5,5.5,89.3,11.2,37627.0,23.6,0.3,0.0,0.0,0.0,0.0,47.6,0.0,0.0,52.7,0.0,0.0,0,,,
face-landmarks-detection,face-landmarks-detection-retinaface,mobile0.25mod4lite-16-64,320x185,imx8m-nano,ncnn,GPU,F16,AP-medium,42.2,0.3,0.4,0.8,7.4,558.0,62.1,627.5,1.6,5354.3,31.9,0.5,0.0,0.0,0.0,0.0,30.2,0.0,0.0,56.4,0.0,0.0,0,,,
face-landmarks-detection,face-landmarks-detection-retinaface,mobile0.25mod4lite-16-64,320x185,imx8m-nano,ncnn,GPU,F32,AP-medium,42.2,0.3,0.4,1.7,7.5,558.1,62.1,627.6,1.6,5353.4,32.1,0.5,0.0,0.0,0.0,0.0,30.2,0.0,0.0,56.3,0.0,0.0,0,,,
face-landmarks-detection,face-landmarks-detection-retinaface,mobile0.25mod4lite-16-64,320x250,imx8m-nano,lne,GPU/CPU,F32,AP-medium,51.9,0.4,0.4,1.7,11.3,102.8,7.3,121.4,8.2,27671.8,24.0,0.3,0.0,0.0,0.0,0.0,48.8,0.0,0.0,53.2,0.0,0.0,0,,,
face-landmarks-detection,face-landmarks-detection-retinaface,mobile0.25mod4lite-16-64,320x250,imx8m-nano,ncnn,GPU,F16,AP-medium,51.9,0.4,0.4,0.8,9.5,739.7,82.6,831.8,1.2,4039.5,32.4,0.5,0.0,0.0,0.0,0.0,30.0,0.0,0.0,57.7,0.0,0.0,0,,,
face-landmarks-detection,face-landmarks-detection-retinaface,mobile0.25mod4lite-16-64,320x250,imx8m-nano,ncnn,GPU,F32,AP-medium,51.9,0.4,0.4,1.7,9.4,739.8,82.6,831.7,1.2,4039.7,32.4,0.5,0.0,0.0,0.0,0.0,30.0,0.0,0.0,56.7,0.0,0.0,0,,,
face-landmarks-detection,face-landmarks-detection-retinaface,mobile0.25mod4lite-16-64,640x640,imx8m-nano,lne,GPU/CPU,F32,AP-medium,79.9,2.1,0.4,1.7,42.6,594.3,35.8,672.6,1.5,4995.5,27.0,0.4,0.0,0.0,0.0,0.0,52.8,0.0,0.0,57.7,0.0,0.0,0,,,
face-landmarks-detection,face-landmarks-detection-retinaface,mobile0.25mod4lite-16-64,640x640,imx8m-nano,ncnn,GPU,F16,AP-medium,79.9,2.1,0.4,0.8,43.6,3657.9,398.4,4099.9,0.2,819.5,36.4,0.6,0.0,0.0,0.0,0.0,29.5,0.0,0.0,60.7,0.0,0.0,0,,,
face-landmarks-detection,face-landmarks-detection-retinaface,mobile0.25mod4lite-16-64,640x640,imx8m-nano,ncnn,GPU,F32,AP-medium,79.9,2.1,0.4,1.7,43.7,3658.3,398.7,4100.7,0.2,819.4,36.5,0.6,0.0,0.0,0.0,0.0,29.5,0.0,0.0,60.0,0.0,0.0,0,,,
face-landmarks-detection,face-landmarks-detection-retinaface,mobile0.25mod4lite-16-64,640x380,imx8m-nano,lne,GPU/CPU,F32,AP-medium,75.0,1.3,0.4,1.7,26.5,333.3,21.8,381.6,2.6,8804.0,25.9,0.4,0.0,0.0,0.0,0.0,52.0,0.0,0.0,56.9,0.0,0.0,0,,,
face-landmarks-detection,face-landmarks-detection-retinaface,mobile0.25mod4lite-16-64,640x380,imx8m-nano,ncnn,GPU,F16,AP-medium,75.0,1.3,0.4,0.8,27.3,2195.6,240.7,2463.6,0.4,1363.9,33.8,0.5,0.0,0.0,0.0,0.0,29.6,0.0,0.0,59.2,0.0,0.0,0,,,
face-landmarks-detection,face-landmarks-detection-retinaface,mobile0.25mod4lite-16-64,640x380,imx8m-nano,ncnn,GPU,F32,AP-medium,75.0,1.3,0.4,1.7,26.8,2195.7,240.7,2463.2,0.4,1364.1,34.2,0.5,0.0,0.0,0.0,0.0,29.6,0.0,0.0,58.8,0.0,0.0,0,,,
face-landmarks-detection,face-landmarks-detection-retinaface,mobile0.25mod4lite-16-64,640x480,imx8m-nano,lne,GPU/CPU,F32,AP-medium,78.7,1.6,0.4,1.7,32.6,434.1,26.8,493.5,2.0,6808.8,26.7,0.4,0.0,0.0,0.0,0.0,52.6,0.0,0.0,56.9,0.0,0.0,0,,,
face-landmarks-detection,face-landmarks-detection-retinaface,mobile0.25mod4lite-16-64,640x480,imx8m-nano,ncnn,GPU,F16,AP-medium,78.7,1.6,0.4,0.8,32.9,2747.7,278.3,3058.9,0.3,1098.4,36.2,0.6,0.0,0.0,0.0,0.0,29.5,0.0,0.0,60.3,0.0,0.0,0,,,
face-landmarks-detection,face-landmarks-detection-retinaface,mobile0.25mod4lite-16-64,640x480,imx8m-nano,ncnn,GPU,F32,AP-medium,78.7,1.6,0.4,1.7,33.4,2748.1,278.5,3059.9,0.3,1098.1,36.3,0.6,0.0,0.0,0.0,0.0,29.5,0.0,0.0,58.4,0.0,0.0,0,,,
face-landmarks-detection,face-landmarks-detection-retinaface,mobile0.25mod4lite-32-72,320x320,imx8m-nano,lne,GPU/CPU,F32,AP-medium,61.9,0.9,0.7,2.9,14.1,245.2,9.4,268.8,3.7,12499.6,25.5,0.3,0.0,0.0,0.0,0.0,51.1,0.0,0.0,56.0,0.0,0.0,0,,,
face-landmarks-detection,face-landmarks-detection-retinaface,mobile0.25mod4lite-32-72,320x320,imx8m-nano,ncnn,GPU,F16,AP-medium,61.9,0.9,0.7,1.5,11.8,1790.1,102.3,1904.2,0.5,1764.5,34.8,0.5,0.0,0.0,0.0,0.0,29.4,0.0,0.0,58.7,0.0,0.0,0,,,
face-landmarks-detection,face-landmarks-detection-retinaface,mobile0.25mod4lite-32-72,320x320,imx8m-nano,ncnn,GPU,F32,AP-medium,61.9,0.9,0.7,2.9,11.8,1790.5,102.6,1904.9,0.5,1763.9,35.1,0.5,0.0,0.0,0.0,0.0,29.4,0.0,0.0,57.8,0.0,0.0,0,,,
face-landmarks-detection,face-landmarks-detection-retinaface,mobile0.25mod4lite-32-72,320x185,imx8m-nano,lne,GPU/CPU,F32,AP-medium,50.5,0.6,0.7,2.9,7.7,141.4,5.6,154.7,6.5,21716.3,25.2,0.3,0.0,0.0,0.0,0.0,49.6,0.0,0.0,54.8,0.0,0.0,0,,,
face-landmarks-detection,face-landmarks-detection-retinaface,mobile0.25mod4lite-32-72,320x185,imx8m-nano,ncnn,GPU,F16,AP-medium,50.5,0.6,0.7,1.5,7.4,1072.3,62.8,1142.5,0.9,2940.8,34.1,0.5,0.0,0.0,0.0,0.0,29.6,0.0,0.0,58.6,0.0,0.0,0,,,
face-landmarks-detection,face-landmarks-detection-retinaface,mobile0.25mod4lite-32-72,320x185,imx8m-nano,ncnn,GPU,F32,AP-medium,50.5,0.6,0.7,2.9,7.4,1072.2,62.7,1142.3,0.9,2941.5,34.5,0.5,0.0,0.0,0.0,0.0,29.6,0.0,0.0,56.8,0.0,0.0,0,,,
face-landmarks-detection,face-landmarks-detection-retinaface,mobile0.25mod4lite-32-72,320x250,imx8m-nano,lne,GPU/CPU,F32,AP-medium,60.3,0.7,0.7,2.9,12.2,192.9,8.8,213.9,4.7,15708.9,25.9,0.3,0.0,0.0,0.0,0.0,50.5,0.0,0.0,54.5,0.0,0.0,0,,,
face-landmarks-detection,face-landmarks-detection-retinaface,mobile0.25mod4lite-32-72,320x250,imx8m-nano,ncnn,GPU,F16,AP-medium,60.3,0.7,0.7,1.5,9.5,1427.2,86.3,1522.9,0.7,2206.3,35.2,0.5,0.0,0.0,0.0,0.0,29.5,0.0,0.0,59.1,0.0,0.0,0,,,
face-landmarks-detection,face-landmarks-detection-retinaface,mobile0.25mod4lite-32-72,320x250,imx8m-nano,ncnn,GPU,F32,AP-medium,60.3,0.7,0.7,2.9,9.5,1427.3,86.5,1523.2,0.7,2205.8,35.2,0.5,0.0,0.0,0.0,0.0,29.5,0.0,0.0,57.1,0.0,0.0,0,,,
face-landmarks-detection,face-landmarks-detection-retinaface,mobile0.25mod4lite-32-72,640x640,imx8m-nano,lne,GPU/CPU,F32,AP-medium,84.0,3.7,0.7,2.9,42.5,1012.7,35.7,1090.9,0.9,3080.2,29.2,0.4,0.0,0.0,0.0,0.0,53.4,0.0,0.0,58.7,0.0,0.0,0,,,
face-landmarks-detection,face-landmarks-detection-retinaface,mobile0.25mod4lite-32-72,640x640,imx8m-nano,ncnn,GPU,F16,AP-medium,84.0,3.7,0.7,1.5,43.4,7055.6,416.3,7515.3,0.1,447.1,41.9,0.7,0.0,0.0,0.0,0.0,29.2,0.0,0.0,60.7,0.0,0.0,0,,,
face-landmarks-detection,face-landmarks-detection-retinaface,mobile0.25mod4lite-32-72,640x640,imx8m-nano,ncnn,GPU,F32,AP-medium,84.0,3.7,0.7,2.9,43.6,7056.5,416.3,7516.4,0.1,447.0,42.0,0.7,0.0,0.0,0.0,0.0,29.2,0.0,0.0,60.1,0.0,0.0,0,,,
face-landmarks-detection,face-landmarks-detection-retinaface,mobile0.25mod4lite-32-72,640x380,imx8m-nano,lne,GPU/CPU,F32,AP-medium,79.7,2.2,0.7,2.9,30.1,599.0,25.9,655.0,1.5,5129.5,27.7,0.4,0.0,0.0,0.0,0.0,52.8,0.0,0.0,57.1,0.0,0.0,0,,,
face-landmarks-detection,face-landmarks-detection-retinaface,mobile0.25mod4lite-32-72,640x380,imx8m-nano,ncnn,GPU,F16,AP-medium,79.7,2.2,0.7,1.5,27.1,4248.4,251.6,4527.1,0.2,742.2,38.8,0.6,0.0,0.0,0.0,0.0,29.3,0.0,0.0,60.2,0.0,0.0,0,,,
face-landmarks-detection,face-landmarks-detection-retinaface,mobile0.25mod4lite-32-72,640x380,imx8m-nano,ncnn,GPU,F32,AP-medium,79.7,2.2,0.7,2.9,27.2,4248.4,251.5,4527.1,0.2,742.2,38.0,0.6,0.0,0.0,0.0,0.0,29.3,0.0,0.0,60.2,0.0,0.0,0,,,
face-landmarks-detection,face-landmarks-detection-retinaface,mobile0.25mod4lite-32-72,640x480,imx8m-nano,lne,GPU/CPU,F32,AP-medium,82.9,2.8,0.7,2.9,32.6,753.8,26.8,813.2,1.2,4131.9,28.8,0.4,0.0,0.0,0.0,0.0,53.0,0.0,0.0,58.7,0.0,0.0,0,,,
face-landmarks-detection,face-landmarks-detection-retinaface,mobile0.25mod4lite-32-72,640x480,imx8m-nano,ncnn,GPU,F16,AP-medium,82.9,2.8,0.7,1.5,33.5,5296.9,283.0,5613.4,0.2,598.6,40.1,0.6,0.0,0.0,0.0,0.0,29.2,0.0,0.0,60.7,0.0,0.0,0,,,
face-landmarks-detection,face-landmarks-detection-retinaface,mobile0.25mod4lite-32-72,640x480,imx8m-nano,ncnn,GPU,F32,AP-medium,82.9,2.8,0.7,2.9,33.3,5296.7,283.0,5612.9,0.2,598.6,40.1,0.6,0.0,0.0,0.0,0.0,29.2,0.0,0.0,60.0,0.0,0.0,0,,,
face-landmarks-detection,face-landmarks-detection-retinaface,mobile0.25mod4lite-48-96,320x320,imx8m-nano,lne,GPU/CPU,F32,AP-medium,64.0,1.7,1.4,5.7,11.6,390.0,9.2,410.8,2.4,8178.4,27.5,0.4,0.0,0.0,0.0,0.0,52.0,0.0,0.0,56.7,0.0,0.0,0,,,
face-landmarks-detection,face-landmarks-detection-retinaface,mobile0.25mod4lite-48-96,320x320,imx8m-nano,ncnn,GPU,F16,AP-medium,64.0,1.7,1.4,2.8,11.7,2509.5,119.0,2640.2,0.4,1272.6,37.9,0.6,0.0,0.0,0.0,0.0,29.2,0.0,0.0,59.9,0.0,0.0,0,,,
face-landmarks-detection,face-landmarks-detection-retinaface,mobile0.25mod4lite-48-96,320x320,imx8m-nano,ncnn,GPU,F32,AP-medium,64.0,1.7,1.4,5.7,11.7,2508.8,121.0,2641.5,0.4,1272.0,38.1,0.6,0.0,0.0,0.0,0.0,29.2,0.0,0.0,58.3,0.0,0.0,0,,,
face-landmarks-detection,face-landmarks-detection-retinaface,mobile0.25mod4lite-48-96,320x185,imx8m-nano,lne,GPU/CPU,F32,AP-medium,52.2,1.0,1.4,5.7,7.4,227.6,5.7,240.7,4.2,13960.5,27.0,0.4,0.0,0.0,0.0,0.0,50.8,0.0,0.0,55.5,0.0,0.0,0,,,
face-landmarks-detection,face-landmarks-detection-retinaface,mobile0.25mod4lite-48-96,320x185,imx8m-nano,ncnn,GPU,F16,AP-medium,52.2,1.0,1.4,2.8,7.3,1502.0,72.8,1582.2,0.6,2123.6,36.6,0.5,0.0,0.0,0.0,0.0,29.3,0.0,0.0,58.4,0.0,0.0,0,,,
face-landmarks-detection,face-landmarks-detection-retinaface,mobile0.25mod4lite-48-96,320x185,imx8m-nano,ncnn,GPU,F32,AP-medium,52.2,1.0,1.4,5.7,7.4,1501.9,72.9,1582.2,0.6,2123.6,36.6,0.5,0.0,0.0,0.0,0.0,29.3,0.0,0.0,58.3,0.0,0.0,0,,,
face-landmarks-detection,face-landmarks-detection-retinaface,mobile0.25mod4lite-48-96,320x250,imx8m-nano,lne,GPU/CPU,F32,AP-medium,62.5,1.3,1.4,5.7,9.4,307.7,7.5,324.5,3.1,10353.4,27.3,0.4,0.0,0.0,0.0,0.0,51.5,0.0,0.0,56.7,0.0,0.0,0,,,
face-landmarks-detection,face-landmarks-detection-retinaface,mobile0.25mod4lite-48-96,320x250,imx8m-nano,ncnn,GPU,F16,AP-medium,62.5,1.3,1.4,2.8,9.7,1999.1,96.9,2105.7,0.5,1595.7,37.1,0.5,0.0,0.0,0.0,0.0,29.2,0.0,0.0,58.9,0.0,0.0,0,,,
face-landmarks-detection,face-landmarks-detection-retinaface,mobile0.25mod4lite-48-96,320x250,imx8m-nano,ncnn,GPU,F32,AP-medium,62.5,1.3,1.4,5.7,9.4,1998.9,97.0,2105.4,0.5,1595.9,37.5,0.6,0.0,0.0,0.0,0.0,29.2,0.0,0.0,57.9,0.0,0.0,0,,,
face-landmarks-detection,face-landmarks-detection-retinaface,mobile0.25mod4lite-48-96,640x640,imx8m-nano,lne,GPU/CPU,F32,AP-medium,86.0,6.6,1.4,5.7,42.4,1621.2,35.8,1699.4,0.6,1977.1,31.5,0.4,0.0,0.0,0.0,0.0,53.5,0.0,0.0,60.6,0.0,0.0,0,,,
face-landmarks-detection,face-landmarks-detection-retinaface,mobile0.25mod4lite-48-96,640x640,imx8m-nano,ncnn,GPU,F16,AP-medium,86.0,6.6,1.4,2.8,42.5,9867.6,468.3,10378.4,0.1,323.7,48.1,0.8,0.0,0.0,0.0,0.0,29.0,0.0,0.0,60.7,0.0,0.0,0,,,
face-landmarks-detection,face-landmarks-detection-retinaface,mobile0.25mod4lite-48-96,640x640,imx8m-nano,ncnn,GPU,F32,AP-medium,86.0,6.6,1.4,5.7,42.3,9870.3,468.8,10381.4,0.1,323.7,48.2,0.8,0.0,0.0,0.0,0.0,29.0,0.0,0.0,60.0,0.0,0.0,0,,,
face-landmarks-detection,face-landmarks-detection-retinaface,mobile0.25mod4lite-48-96,640x380,imx8m-nano,lne,GPU/CPU,F32,AP-medium,81.6,3.9,1.4,5.7,26.7,952.2,22.1,1001.0,1.0,3356.7,29.4,0.4,0.0,0.0,0.0,0.0,53.2,0.0,0.0,58.8,0.0,0.0,0,,,
face-landmarks-detection,face-landmarks-detection-retinaface,mobile0.25mod4lite-48-96,640x380,imx8m-nano,ncnn,GPU,F16,AP-medium,81.6,3.9,1.4,2.8,26.9,5931.0,283.6,6241.4,0.2,538.3,43.3,0.7,0.0,0.0,0.0,0.0,29.1,0.0,0.0,60.3,0.0,0.0,0,,,
face-landmarks-detection,face-landmarks-detection-retinaface,mobile0.25mod4lite-48-96,640x380,imx8m-nano,ncnn,GPU,F32,AP-medium,81.6,3.9,1.4,5.7,26.9,5932.7,283.9,6243.5,0.2,538.2,43.5,0.7,0.0,0.0,0.0,0.0,29.1,0.0,0.0,59.8,0.0,0.0,0,,,
face-landmarks-detection,face-landmarks-detection-retinaface,mobile0.25mod4lite-48-96,640x480,imx8m-nano,lne,GPU/CPU,F32,AP-medium,84.9,4.9,1.4,5.7,32.7,1183.8,27.0,1243.5,0.8,2702.0,31.0,0.4,0.0,0.0,0.0,0.0,53.5,0.0,0.0,60.4,0.0,0.0,0,,,
face-landmarks-detection,face-landmarks-detection-retinaface,mobile0.25mod4lite-48-96,640x480,imx8m-nano,ncnn,GPU,F16,AP-medium,84.9,4.9,1.4,2.8,32.7,7381.5,330.4,7744.6,0.1,433.9,45.4,0.7,0.0,0.0,0.0,0.0,29.0,0.0,0.0,61.4,0.0,0.0,0,,,
face-landmarks-detection,face-landmarks-detection-retinaface,mobile0.25mod4lite-48-96,640x480,imx8m-nano,ncnn,GPU,F32,AP-medium,84.9,4.9,1.4,5.7,33.0,7383.4,331.4,7747.8,0.1,433.7,45.4,0.7,0.0,0.0,0.0,0.0,29.0,0.0,0.0,60.9,0.0,0.0,0,,,
face-landmarks-detection,face-landmarks-detection-retinaface,mobile0.25mod4lite-64-128,320x320,imx8m-nano,lne,GPU/CPU,F32,AP-medium,68.4,2.9,2.5,10.0,11.6,583.5,9.5,604.6,1.7,5557.4,29.2,0.4,0.0,0.0,0.0,0.0,52.7,0.0,0.0,58.8,0.0,0.0,0,,,
face-landmarks-detection,face-landmarks-detection-retinaface,mobile0.25mod4lite-64-128,320x320,imx8m-nano,ncnn,GPU,F16,AP-medium,68.4,2.9,2.5,5.0,11.8,4100.9,137.0,4249.7,0.2,790.6,40.7,0.6,0.0,0.0,0.0,0.0,29.0,0.0,0.0,60.9,0.0,0.0,0,,,
face-landmarks-detection,face-landmarks-detection-retinaface,mobile0.25mod4lite-64-128,320x320,imx8m-nano,ncnn,GPU,F32,AP-medium,68.4,2.9,2.5,10.0,11.7,4101.1,136.9,4249.7,0.2,790.6,40.9,0.6,0.0,0.0,0.0,0.0,29.0,0.0,0.0,59.3,0.0,0.0,0,,,
face-landmarks-detection,face-landmarks-detection-retinaface,mobile0.25mod4lite-64-128,320x185,imx8m-nano,lne,GPU/CPU,F32,AP-medium,56.9,1.7,2.5,10.0,7.4,343.7,5.6,356.7,2.8,9420.3,28.9,0.4,0.0,0.0,0.0,0.0,51.7,0.0,0.0,57.2,0.0,0.0,0,,,
face-landmarks-detection,face-landmarks-detection-retinaface,mobile0.25mod4lite-64-128,320x185,imx8m-nano,ncnn,GPU,F16,AP-medium,56.9,1.7,2.5,5.0,7.4,2455.3,83.5,2546.2,0.4,1319.6,39.0,0.6,0.0,0.0,0.0,0.0,29.1,0.0,0.0,60.1,0.0,0.0,0,,,
face-landmarks-detection,face-landmarks-detection-retinaface,mobile0.25mod4lite-64-128,320x185,imx8m-nano,ncnn,GPU,F32,AP-medium,56.9,1.7,2.5,10.0,7.4,2455.5,83.4,2546.3,0.4,1319.6,39.3,0.6,0.0,0.0,0.0,0.0,29.1,0.0,0.0,58.2,0.0,0.0,0,,,
face-landmarks-detection,face-landmarks-detection-retinaface,mobile0.25mod4lite-64-128,320x250,imx8m-nano,lne,GPU/CPU,F32,AP-medium,66.5,2.3,2.5,10.0,9.4,463.1,7.5,480.0,2.1,6999.9,30.3,0.4,0.0,0.0,0.0,0.0,52.3,0.0,0.0,57.1,0.0,0.0,0,,,
face-landmarks-detection,face-landmarks-detection-retinaface,mobile0.25mod4lite-64-128,320x250,imx8m-nano,ncnn,GPU,F16,AP-medium,66.5,2.3,2.5,5.0,9.5,3273.5,111.4,3394.4,0.3,989.9,41.0,0.6,0.0,0.0,0.0,0.0,29.1,0.0,0.0,59.6,0.0,0.0,0,,,
face-landmarks-detection,face-landmarks-detection-retinaface,mobile0.25mod4lite-64-128,320x250,imx8m-nano,ncnn,GPU,F32,AP-medium,66.5,2.3,2.5,10.0,9.4,3273.8,111.2,3394.4,0.3,989.9,41.4,0.6,0.0,0.0,0.0,0.0,29.0,0.0,0.0,58.8,0.0,0.0,0,,,
face-landmarks-detection,face-landmarks-detection-retinaface,mobile0.25mod4lite-64-128,640x640,imx8m-nano,lne,GPU/CPU,F32,AP-medium,87.3,11.4,2.5,10.0,42.7,2545.8,36.2,2624.7,0.4,1280.1,33.5,0.5,0.0,0.0,0.0,0.0,53.8,0.0,0.0,61.5,0.0,0.0,0,,,
face-landmarks-detection,face-landmarks-detection-retinaface,mobile0.25mod4lite-64-128,640x640,imx8m-nano,ncnn,GPU,F16,AP-medium,87.3,11.4,2.5,5.0,42.4,16137.5,538.2,16718.2,0.1,201.0,54.1,0.9,0.0,0.0,0.0,0.0,28.9,0.0,0.0,60.8,0.0,0.0,0,,,
face-landmarks-detection,face-landmarks-detection-retinaface,mobile0.25mod4lite-64-128,640x640,imx8m-nano,ncnn,GPU,F32,AP-medium,87.3,11.4,2.5,10.0,43.0,16127.3,538.6,16708.9,0.1,201.1,55.8,0.9,0.0,0.0,0.0,0.0,28.9,0.0,0.0,60.8,0.0,0.0,0,,,
face-landmarks-detection,face-landmarks-detection-retinaface,mobile0.25mod4lite-64-128,640x380,imx8m-nano,lne,GPU/CPU,F32,AP-medium,83.3,6.8,2.5,10.0,26.4,1416.4,22.3,1465.1,0.7,2293.3,32.6,0.4,0.0,0.0,0.0,0.0,53.7,0.0,0.0,61.1,0.0,0.0,0,,,
face-landmarks-detection,face-landmarks-detection-retinaface,mobile0.25mod4lite-64-128,640x380,imx8m-nano,ncnn,GPU,F16,AP-medium,83.3,6.8,2.5,5.0,27.1,9714.1,325.8,10066.9,0.1,333.8,48.7,0.7,0.0,0.0,0.0,0.0,28.9,0.0,0.0,61.3,0.0,0.0,0,,,
face-landmarks-detection,face-landmarks-detection-retinaface,mobile0.25mod4lite-64-128,640x380,imx8m-nano,ncnn,GPU,F32,AP-medium,83.3,6.8,2.5,10.0,27.1,9713.0,326.3,10066.5,0.1,333.8,48.7,0.7,0.0,0.0,0.0,0.0,28.9,0.0,0.0,61.0,0.0,0.0,0,,,
face-landmarks-detection,face-landmarks-detection-retinaface,mobile0.25mod4lite-64-128,640x480,imx8m-nano,lne,GPU/CPU,F32,AP-medium,86.2,8.6,2.5,10.0,32.7,1907.7,27.1,1967.5,0.5,1707.8,33.2,0.4,0.0,0.0,0.0,0.0,53.7,0.0,0.0,61.2,0.0,0.0,0,,,
face-landmarks-detection,face-landmarks-detection-retinaface,mobile0.25mod4lite-64-128,640x480,imx8m-nano,ncnn,GPU,F16,AP-medium,86.2,8.6,2.5,5.0,32.7,12152.3,383.6,12568.6,0.1,267.3,51.5,0.8,0.0,0.0,0.0,0.0,28.9,0.0,0.0,60.8,0.0,0.0,0,,,
face-landmarks-detection,face-landmarks-detection-retinaface,mobile0.25mod4lite-64-128,640x480,imx8m-nano,ncnn,GPU,F32,AP-medium,86.2,8.6,2.5,10.0,33.0,12158.5,384.0,12575.5,0.1,267.2,52.3,0.8,0.0,0.0,0.0,0.0,28.9,0.0,0.0,60.5,0.0,0.0,0,,,
incar-object-detection,incar-object-detection-nanodet,resnet50,320x320,imx8m-nano,lne,GPU/CPU,F32,/,/,17.4,24.4,97.4,11.0,2354.9,2.0,2367.9,0.4,1419.0,46.0,0.7,0.0,0.0,0.0,0.0,54.1,0.0,0.0,64.2,0.0,0.0,0,,,
incar-object-detection,incar-object-detection-nanodet,resnet50,320x320,imx8m-nano,ncnn,GPU,F16,/,/,17.4,24.4,48.7,11.1,16195.6,216.6,16423.3,0.1,204.6,71.4,1.2,0.0,0.0,0.0,0.0,28.8,0.0,0.0,61.1,0.0,0.0,0,,,
incar-object-detection,incar-object-detection-nanodet,resnet50,320x320,imx8m-nano,ncnn,GPU,F32,/,/,17.4,24.4,97.4,11.1,16197.8,216.5,16425.3,0.1,204.6,73.1,1.2,0.0,0.0,0.0,0.0,28.8,0.0,0.0,61.0,0.0,0.0,0,,,
incar-object-detection,incar-object-detection-nanodet,resnet50,640x640,imx8m-nano,lne,GPU/CPU,F32,/,/,81.4,28.5,114.1,37.4,11735.2,8.3,11781.0,0.1,285.2,57.1,0.9,0.0,0.0,0.0,0.0,54.2,0.0,0.0,63.9,0.0,0.0,0,,,
incar-object-detection,incar-object-detection-nanodet,resnet50,640x640,imx8m-nano,ncnn,GPU,F16,/,/,81.4,28.5,57.1,/,/,/,/,/,/,0.0,0.0,0.0,0.0,0.0,0.0,0.0,0.0,0.0,0.0,0.0,0.0,0,,,
incar-object-detection,incar-object-detection-nanodet,resnet50,640x640,imx8m-nano,ncnn,GPU,F32,/,/,81.4,28.5,114.1,/,/,/,/,/,/,0.0,0.0,0.0,0.0,0.0,0.0,0.0,0.0,0.0,0.0,0.0,0.0,0,,,
incar-object-detection,incar-object-detection-nanodet,resnet50,640x480,imx8m-nano,lne,GPU/CPU,F32,/,/,52.0,24.4,97.4,27.4,7169.7,6.3,7203.5,0.1,466.4,55.3,0.9,0.0,0.0,0.0,0.0,54.2,0.0,0.0,64.0,0.0,0.0,0,,,
incar-object-detection,incar-object-detection-nanodet,resnet50,640x480,imx8m-nano,ncnn,GPU,F16,/,/,52.0,24.4,48.7,/,/,/,/,/,/,0.0,0.0,0.0,0.0,0.0,0.0,0.0,0.0,0.0,0.0,0.0,0.0,0,,,
incar-object-detection,incar-object-detection-nanodet,resnet50,640x480,imx8m-nano,ncnn,GPU,F32,/,/,52.0,24.4,97.4,/,/,/,/,/,/,0.0,0.0,0.0,0.0,0.0,0.0,0.0,0.0,0.0,0.0,0.0,0.0,0,,,
face-recognition,face-recognition-insightsface-mobilefacenet,mxnet,112x112,imx8m-nano,lne,GPU/CPU,F32,/,/,0.4,1.0,4.0,13.5,888.6,0.0,902.2,1.1,3724.4,62.4,1.0,0.0,0.0,0.0,0.0,100.0,0.0,0.0,72.3,0.0,0.0,0,,,
face-recognition,face-recognition-insightsface-mobilefacenet,mxnet,112x112,imx8m-nano,ncnn,GPU,F16,/,/,0.4,1.0,2.0,7.3,511.7,1.3,520.4,1.9,6457.0,65.8,1.1,0.0,0.0,0.0,0.0,100.0,0.0,0.0,76.8,0.0,0.0,0,,,
face-recognition,face-recognition-insightsface-mobilefacenet,mxnet,112x112,imx8m-nano,ncnn,GPU,F32,/,/,0.4,1.0,4.0,/,/,/,/,/,/,0.0,0.0,0.0,0.0,0.0,0.0,0.0,0.0,0.0,0.0,0.0,0.0,0,,,
age-gender-estimation,age-gender-insightface,mobilenet_0_25x,112x112,imx8m-nano,lne,GPU/CPU,F32,/,/,0.1,0.3,1.1,13.7,159.3,0.4,173.4,5.8,19378.6,60.4,1.0,0.0,0.0,0.0,0.0,100.0,0.0,0.0,72.0,0.0,0.0,0,,,
age-gender-estimation,age-gender-insightface,mobilenet_0_25x,112x112,imx8m-nano,ncnn,GPU,F16,/,/,0.1,0.3,0.5,/,/,/,/,/,/,0.0,0.0,0.0,0.0,0.0,0.0,0.0,0.0,0.0,0.0,0.0,0.0,0,,,
age-gender-estimation,age-gender-insightface,mobilenet_0_25x,112x112,imx8m-nano,ncnn,GPU,F32,/,/,0.1,0.3,1.1,6.3,121.9,0.7,129.0,7.8,26043.4,65.4,1.0,0.0,0.0,0.0,0.0,100.0,0.0,0.0,74.5,0.0,0.0,0,,,
emotion-classification,emotion-classic-light-112x96,default_onnx,96x112,imx8m-nano,lne,GPU/CPU,F32,/,/,0.4,2.7,10.8,/,/,/,/,/,/,0.0,0.0,0.0,0.0,0.0,0.0,0.0,0.0,0.0,0.0,0.0,0.0,0,,,
emotion-classification,emotion-classic-light-112x96,default_onnx,96x112,imx8m-nano,ncnn,GPU,F16,/,/,0.4,2.7,5.4,/,/,/,/,/,/,0.0,0.0,0.0,0.0,0.0,0.0,0.0,0.0,0.0,0.0,0.0,0.0,0,,,
emotion-classification,emotion-classic-light-112x96,default_onnx,96x112,imx8m-nano,ncnn,GPU,F32,/,/,0.4,2.7,10.8,/,/,/,/,/,/,0.0,0.0,0.0,0.0,0.0,0.0,0.0,0.0,0.0,0.0,0.0,0.0,0,,,
emotion-classification,emotion-classic-light-112x96,moonshine_onnx,96x112,imx8m-nano,lne,GPU/CPU,F32,/,/,0.2,0.1,0.6,/,/,/,/,/,/,0.0,0.0,0.0,0.0,0.0,0.0,0.0,0.0,0.0,0.0,0.0,0.0,0,,,
emotion-classification,emotion-classic-light-112x96,moonshine_onnx,96x112,imx8m-nano,ncnn,GPU,F16,/,/,0.2,0.1,0.3,/,/,/,/,/,/,0.0,0.0,0.0,0.0,0.0,0.0,0.0,0.0,0.0,0.0,0.0,0.0,0,,,
emotion-classification,emotion-classic-light-112x96,moonshine_onnx,96x112,imx8m-nano,ncnn,GPU,F32,/,/,0.2,0.1,0.6,/,/,/,/,/,/,0.0,0.0,0.0,0.0,0.0,0.0,0.0,0.0,0.0,0.0,0.0,0.0,0,,,
emotion-classification,emotion-classic-light-112x96,student_g1,96x112,imx8m-nano,lne,GPU/CPU,F32,/,/,0.6,0.4,1.6,/,/,/,/,/,/,0.0,0.0,0.0,0.0,0.0,0.0,0.0,0.0,0.0,0.0,0.0,0.0,0,,,
emotion-classification,emotion-classic-light-112x96,student_g1,96x112,imx8m-nano,ncnn,GPU,F16,/,/,0.6,0.4,0.8,/,/,/,/,/,/,0.0,0.0,0.0,0.0,0.0,0.0,0.0,0.0,0.0,0.0,0.0,0.0,0,,,
emotion-classification,emotion-classic-light-112x96,student_g1,96x112,imx8m-nano,ncnn,GPU,F32,/,/,0.6,0.4,1.6,/,/,/,/,/,/,0.0,0.0,0.0,0.0,0.0,0.0,0.0,0.0,0.0,0.0,0.0,0.0,0,,,
emotion-classification,emotion-classic-light-112x96,student_g16,96x112,imx8m-nano,lne,GPU/CPU,F32,/,/,0.1,0.1,0.3,/,/,/,/,/,/,0.0,0.0,0.0,0.0,0.0,0.0,0.0,0.0,0.0,0.0,0.0,0.0,0,,,
emotion-classification,emotion-classic-light-112x96,student_g16,96x112,imx8m-nano,ncnn,GPU,F16,/,/,0.1,0.1,0.2,/,/,/,/,/,/,0.0,0.0,0.0,0.0,0.0,0.0,0.0,0.0,0.0,0.0,0.0,0.0,0,,,
emotion-classification,emotion-classic-light-112x96,student_g16,96x112,imx8m-nano,ncnn,GPU,F32,/,/,0.1,0.1,0.3,/,/,/,/,/,/,0.0,0.0,0.0,0.0,0.0,0.0,0.0,0.0,0.0,0.0,0.0,0.0,0,,,
emotion-classification,emotion-classic-light-112x96,student_g2,96x112,imx8m-nano,lne,GPU/CPU,F32,/,/,0.4,0.2,0.9,/,/,/,/,/,/,0.0,0.0,0.0,0.0,0.0,0.0,0.0,0.0,0.0,0.0,0.0,0.0,0,,,
emotion-classification,emotion-classic-light-112x96,student_g2,96x112,imx8m-nano,ncnn,GPU,F16,/,/,0.4,0.2,0.5,/,/,/,/,/,/,0.0,0.0,0.0,0.0,0.0,0.0,0.0,0.0,0.0,0.0,0.0,0.0,0,,,
emotion-classification,emotion-classic-light-112x96,student_g2,96x112,imx8m-nano,ncnn,GPU,F32,/,/,0.4,0.2,0.9,/,/,/,/,/,/,0.0,0.0,0.0,0.0,0.0,0.0,0.0,0.0,0.0,0.0,0.0,0.0,0,,,
emotion-classification,emotion-classic-light-112x96,student_g32,96x112,imx8m-nano,lne,GPU/CPU,F32,/,/,0.1,0.1,0.3,/,/,/,/,/,/,0.0,0.0,0.0,0.0,0.0,0.0,0.0,0.0,0.0,0.0,0.0,0.0,0,,,
emotion-classification,emotion-classic-light-112x96,student_g32,96x112,imx8m-nano,ncnn,GPU,F16,/,/,0.1,0.1,0.1,/,/,/,/,/,/,0.0,0.0,0.0,0.0,0.0,0.0,0.0,0.0,0.0,0.0,0.0,0.0,0,,,
emotion-classification,emotion-classic-light-112x96,student_g32,96x112,imx8m-nano,ncnn,GPU,F32,/,/,0.1,0.1,0.3,/,/,/,/,/,/,0.0,0.0,0.0,0.0,0.0,0.0,0.0,0.0,0.0,0.0,0.0,0.0,0,,,
emotion-classification,emotion-classic-light-112x96,student_g4,96x112,imx8m-nano,lne,GPU/CPU,F32,/,/,0.2,0.1,0.6,/,/,/,/,/,/,0.0,0.0,0.0,0.0,0.0,0.0,0.0,0.0,0.0,0.0,0.0,0.0,0,,,
emotion-classification,emotion-classic-light-112x96,student_g4,96x112,imx8m-nano,ncnn,GPU,F16,/,/,0.2,0.1,0.3,/,/,/,/,/,/,0.0,0.0,0.0,0.0,0.0,0.0,0.0,0.0,0.0,0.0,0.0,0.0,0,,,
emotion-classification,emotion-classic-light-112x96,student_g4,96x112,imx8m-nano,ncnn,GPU,F32,/,/,0.2,0.1,0.6,/,/,/,/,/,/,0.0,0.0,0.0,0.0,0.0,0.0,0.0,0.0,0.0,0.0,0.0,0.0,0,,,
emotion-classification,emotion-classic-light-112x96,student_g8,96x112,imx8m-nano,lne,GPU/CPU,F32,/,/,0.2,0.1,0.4,/,/,/,/,/,/,0.0,0.0,0.0,0.0,0.0,0.0,0.0,0.0,0.0,0.0,0.0,0.0,0,,,
emotion-classification,emotion-classic-light-112x96,student_g8,96x112,imx8m-nano,ncnn,GPU,F16,/,/,0.2,0.1,0.2,/,/,/,/,/,/,0.0,0.0,0.0,0.0,0.0,0.0,0.0,0.0,0.0,0.0,0.0,0.0,0,,,
emotion-classification,emotion-classic-light-112x96,student_g8,96x112,imx8m-nano,ncnn,GPU,F32,/,/,0.2,0.1,0.4,/,/,/,/,/,/,0.0,0.0,0.0,0.0,0.0,0.0,0.0,0.0,0.0,0.0,0.0,0.0,0,,,
emotion-classification,emotion-classic-light-112x96,teacher_onnx,96x112,imx8m-nano,lne,GPU/CPU,F32,/,/,0.5,8.5,33.8,/,/,/,/,/,/,0.0,0.0,0.0,0.0,0.0,0.0,0.0,0.0,0.0,0.0,0.0,0.0,0,,,
emotion-classification,emotion-classic-light-112x96,teacher_onnx,96x112,imx8m-nano,ncnn,GPU,F16,/,/,0.5,8.5,16.9,/,/,/,/,/,/,0.0,0.0,0.0,0.0,0.0,0.0,0.0,0.0,0.0,0.0,0.0,0.0,0,,,
emotion-classification,emotion-classic-light-112x96,teacher_onnx,96x112,imx8m-nano,ncnn,GPU,F32,/,/,0.5,8.5,33.8,/,/,/,/,/,/,0.0,0.0,0.0,0.0,0.0,0.0,0.0,0.0,0.0,0.0,0.0,0.0,0,,,
eyegaze,eyegaze-rankgaze,mobilefacenet-mpiigaze,224x224,imx8m-nano,lne,GPU/CPU,F32,Avg MAE,5.66,1.9,4.2,16.6,19.2,520.7,0.0,539.9,1.9,6223.0,30.6,0.4,0.0,0.0,0.0,0.0,53.1,0.0,0.0,60.5,0.0,0.0,0,,,
eyegaze,eyegaze-rankgaze,mobilefacenet-mpiigaze,224x224,imx8m-nano,ncnn,GPU,F16,Avg MAE,5.66,1.9,4.2,8.3,19.4,2092.2,0.4,2111.9,0.5,1591.0,38.4,0.5,0.0,0.0,0.0,0.0,29.3,0.0,0.0,60.2,0.0,0.0,0,,,
eyegaze,eyegaze-rankgaze,mobilefacenet-mpiigaze,224x224,imx8m-nano,ncnn,GPU,F32,Avg MAE,5.66,1.9,4.2,16.6,19.5,2092.4,0.4,2112.3,0.5,1590.7,38.6,0.5,0.0,0.0,0.0,0.0,29.3,0.0,0.0,59.6,0.0,0.0,0,,,
eyegaze,eyegaze-rankgaze,mobilefacenet-mpiigaze-righteye-t50,32x32,imx8m-nano,lne,GPU/CPU,F32,Avg MAE,5.9,0.0,4.1,16.2,0.4,15.4,0.0,15.8,63.2,212198.5,30.0,0.4,0.0,0.0,0.0,0.0,42.4,0.0,0.0,51.5,0.0,0.0,0,,,
eyegaze,eyegaze-rankgaze,mobilefacenet-mpiigaze-righteye-t50,32x32,imx8m-nano,ncnn,GPU,F16,Avg MAE,5.9,0.0,4.1,8.1,0.4,171.5,0.3,172.2,5.8,19509.6,35.1,0.5,0.0,0.0,0.0,0.0,31.5,0.0,0.0,53.5,0.0,0.0,0,,,
eyegaze,eyegaze-rankgaze,mobilefacenet-mpiigaze-righteye-t50,32x32,imx8m-nano,ncnn,GPU,F32,Avg MAE,5.9,0.0,4.1,16.2,0.4,171.4,0.3,172.1,5.8,19524.6,35.0,0.5,0.0,0.0,0.0,0.0,31.6,0.0,0.0,52.8,0.0,0.0,0,,,
eyegaze,eyegaze-rankgaze,mobilefacenet-mpiigaze-righteye-t50,48x32,imx8m-nano,lne,GPU/CPU,F32,Avg MAE,7.25,0.1,4.1,16.2,0.4,20.2,0.0,20.7,48.4,162696.3,30.0,0.4,0.0,0.0,0.0,0.0,43.6,0.0,0.0,50.7,0.0,0.0,0,,,
eyegaze,eyegaze-rankgaze,mobilefacenet-mpiigaze-righteye-t50,48x32,imx8m-nano,ncnn,GPU,F16,Avg MAE,7.25,0.1,4.1,8.1,0.5,184.4,0.3,185.2,5.4,18143.6,35.2,0.5,0.0,0.0,0.0,0.0,31.4,0.0,0.0,53.4,0.0,0.0,0,,,
eyegaze,eyegaze-rankgaze,mobilefacenet-mpiigaze-righteye-t50,48x32,imx8m-nano,ncnn,GPU,F32,Avg MAE,7.25,0.1,4.1,16.2,0.5,185.4,0.3,186.2,5.4,18048.3,35.6,0.5,0.0,0.0,0.0,0.0,31.6,0.0,0.0,52.8,0.0,0.0,0,,,
eyegaze,eyegaze-rankgaze,mobilefacenet-mpiigaze-righteye-t50,64x48,imx8m-nano,lne,GPU/CPU,F32,Avg MAE,6.32,0.1,4.1,16.2,0.7,35.4,0.0,36.1,27.7,92999.3,29.6,0.4,0.0,0.0,0.0,0.0,45.5,0.0,0.0,52.4,0.0,0.0,0,,,
eyegaze,eyegaze-rankgaze,mobilefacenet-mpiigaze-righteye-t50,64x48,imx8m-nano,ncnn,GPU,F16,Avg MAE,6.32,0.1,4.1,8.1,0.7,255.6,0.4,256.6,3.9,13092.2,35.4,0.5,0.0,0.0,0.0,0.0,30.8,0.0,0.0,53.9,0.0,0.0,0,,,
eyegaze,eyegaze-rankgaze,mobilefacenet-mpiigaze-righteye-t50,64x48,imx8m-nano,ncnn,GPU,F32,Avg MAE,6.32,0.1,4.1,16.2,0.7,255.6,0.3,256.6,3.9,13091.9,35.7,0.5,0.0,0.0,0.0,0.0,30.8,0.0,0.0,54.3,0.0,0.0,0,,,
eyegaze,eyegaze-rankgaze,mobilefacenet-mpiigaze-righteye-t50,64x64,imx8m-nano,lne,GPU/CPU,F32,Avg MAE,5.82,0.2,4.1,16.2,0.9,46.8,0.0,47.7,21.0,70405.1,30.3,0.4,0.0,0.0,0.0,0.0,46.2,0.0,0.0,51.9,0.0,0.0,0,,,
eyegaze,eyegaze-rankgaze,mobilefacenet-mpiigaze-righteye-t50,64x64,imx8m-nano,ncnn,GPU,F16,Avg MAE,5.82,0.2,4.1,8.1,0.9,281.3,0.4,282.5,3.5,11892.9,35.6,0.5,0.0,0.0,0.0,0.0,30.8,0.0,0.0,54.1,0.0,0.0,0,,,
eyegaze,eyegaze-rankgaze,mobilefacenet-mpiigaze-righteye-t50,64x64,imx8m-nano,ncnn,GPU,F32,Avg MAE,5.82,0.2,4.1,16.2,0.9,281.3,0.3,282.5,3.5,11893.9,35.9,0.5,0.0,0.0,0.0,0.0,30.7,0.0,0.0,53.6,0.0,0.0,0,,,
eyegaze,eyegaze-rankgaze,resnet50-mpiigaze,224x224,imx8m-nano,lne,GPU/CPU,F32,/,/,8.2,25.6,102.3,19.2,1125.5,0.0,1144.8,0.9,2935.1,44.9,0.7,0.0,0.0,0.0,0.0,53.9,0.0,0.0,62.1,0.0,0.0,0,,,
eyegaze,eyegaze-rankgaze,resnet50-mpiigaze,224x224,imx8m-nano,ncnn,GPU,F16,/,/,8.2,25.6,51.2,19.2,7820.6,0.4,7840.2,0.1,428.6,63.2,1.0,0.0,0.0,0.0,0.0,28.9,0.0,0.0,61.5,0.0,0.0,0,,,
eyegaze,eyegaze-rankgaze,resnet50-mpiigaze,224x224,imx8m-nano,ncnn,GPU,F32,/,/,8.2,25.6,102.3,19.3,7823.5,0.4,7843.2,0.1,428.4,65.8,1.1,0.0,0.0,0.0,0.0,28.9,0.0,0.0,60.7,0.0,0.0,0,,,
headpose-estimation,headpose-rankpose,mobilefacenetfc512,224x224,imx8m-nano,lne,GPU/CPU,F32,Avg MAE,4.43,1.9,6.3,25.3,19.2,522.5,0.0,541.8,1.8,6201.9,30.6,0.4,0.0,0.0,0.0,0.0,53.0,0.0,0.0,57.5,0.0,0.0,0,,,
headpose-estimation,headpose-rankpose,mobilefacenetfc512,224x224,imx8m-nano,ncnn,GPU,F16,Avg MAE,4.43,1.9,6.3,12.6,19.3,2155.3,0.4,2175.0,0.5,1544.8,38.5,0.5,0.0,0.0,0.0,0.0,29.2,0.0,0.0,59.5,0.0,0.0,0,,,
headpose-estimation,headpose-rankpose,mobilefacenetfc512,224x224,imx8m-nano,ncnn,GPU,F32,Avg MAE,4.43,1.9,6.3,25.3,19.2,2157.4,0.4,2177.0,0.5,1543.4,39.1,0.6,0.0,0.0,0.0,0.0,29.3,0.0,0.0,58.1,0.0,0.0,0,,,
headpose-estimation,headpose-rankpose,mobilefacenetfc512onlypose,96x112,imx8m-nano,lne,GPU/CPU,F32,Avg MAE,4.34,0.4,3.0,12.1,10.2,109.0,0.0,119.2,8.4,28190.6,28.7,0.4,0.0,0.0,0.0,0.0,49.2,0.0,0.0,54.2,0.0,0.0,0,,,
headpose-estimation,headpose-rankpose,mobilefacenetfc512onlypose,96x112,imx8m-nano,ncnn,GPU,F16,Avg MAE,4.34,0.4,3.0,6.0,10.3,549.9,0.4,560.6,1.8,5993.9,34.6,0.5,0.0,0.0,0.0,0.0,30.1,0.0,0.0,55.7,0.0,0.0,0,,,
headpose-estimation,headpose-rankpose,mobilefacenetfc512onlypose,96x112,imx8m-nano,ncnn,GPU,F32,Avg MAE,4.34,0.4,3.0,12.1,10.2,549.4,0.4,559.9,1.8,6000.6,34.8,0.5,0.0,0.0,0.0,0.0,30.0,0.0,0.0,55.1,0.0,0.0,0,,,
headpose-estimation,headpose-rankpose,mobilefacenetonlyposefc512,112x112,imx8m-nano,lne,GPU/CPU,F32,Avg MAE,4.38,0.5,3.0,12.1,10.8,127.3,0.0,138.2,7.2,24320.9,29.2,0.4,0.0,0.0,0.0,0.0,49.7,0.0,0.0,53.9,0.0,0.0,0,,,
headpose-estimation,headpose-rankpose,mobilefacenetonlyposefc512,112x112,imx8m-nano,ncnn,GPU,F16,Avg MAE,4.38,0.5,3.0,6.1,11.2,624.2,0.4,635.7,1.6,5285.2,34.6,0.5,0.0,0.0,0.0,0.0,29.9,0.0,0.0,56.2,0.0,0.0,0,,,
headpose-estimation,headpose-rankpose,mobilefacenetonlyposefc512,112x112,imx8m-nano,ncnn,GPU,F32,Avg MAE,4.38,0.5,3.0,12.1,11.0,623.6,0.4,635.0,1.6,5291.7,34.9,0.5,0.0,0.0,0.0,0.0,29.9,0.0,0.0,55.3,0.0,0.0,0,,,
headpose-estimation,headpose-rankpose,resnet50,224x224,imx8m-nano,lne,GPU/CPU,F32,/,/,8.2,23.8,95.1,19.2,1119.7,0.0,1138.9,0.9,2950.3,44.3,0.7,0.0,0.0,0.0,0.0,53.9,0.0,0.0,63.2,0.0,0.0,0,,,
headpose-estimation,headpose-rankpose,resnet50,224x224,imx8m-nano,ncnn,GPU,F16,/,/,8.2,23.8,47.5,19.3,7852.4,0.4,7872.1,0.1,426.8,62.3,1.0,0.0,0.0,0.0,0.0,28.9,0.0,0.0,62.0,0.0,0.0,0,,,
headpose-estimation,headpose-rankpose,resnet50,224x224,imx8m-nano,ncnn,GPU,F32,/,/,8.2,23.8,95.1,19.3,7843.9,0.4,7863.6,0.1,427.3,64.6,1.0,0.0,0.0,0.0,0.0,28.9,0.0,0.0,61.7,0.0,0.0,0,,,
imagenet,imagenet-alexnet,benchmark,227x227,imx8m-nano,lne,GPU/CPU,F32,Accuracy top-1,56.6,1.4,61.0,243.9,104.7,1974.9,0.0,2079.6,0.5,1615.7,75.7,1.2,0.0,0.0,0.0,0.0,100.0,0.0,0.0,72.5,0.0,0.0,0,,,
imagenet,imagenet-efficientb0,default,224x224,imx8m-nano,lne,GPU/CPU,F32,Accuracy top-1,77.1,0.8,5.3,21.1,106.2,3460.2,0.3,3566.6,0.3,942.1,66.7,1.0,0.0,0.0,0.0,0.0,100.0,0.0,0.0,72.0,0.0,0.0,0,,,
imagenet,imagenet-efficientb0,default,224x224,imx8m-nano,ncnn,GPU,F16,Accuracy top-1,77.1,0.8,5.3,10.5,/,/,/,/,/,/,0.0,0.0,0.0,0.0,0.0,0.0,0.0,0.0,0.0,0.0,0.0,0.0,0,,,
imagenet,imagenet-efficientb0,default,224x224,imx8m-nano,ncnn,GPU,F32,Accuracy top-1,77.1,0.8,5.3,21.1,/,/,/,/,/,/,0.0,0.0,0.0,0.0,0.0,0.0,0.0,0.0,0.0,0.0,0.0,0.0,0,,,
imagenet,imagenet-googlenet,benchmark,224x224,imx8m-nano,lne,GPU/CPU,F32,Accuracy top-1,66.5,3.2,7.0,28.0,101.9,3364.4,0.2,3466.4,0.3,969.3,71.4,1.1,0.0,0.0,0.0,0.0,100.0,0.0,0.0,72.8,0.0,0.0,0,,,
imagenet,imagenet-mobilenet,default,224x224,imx8m-nano,lne,GPU/CPU,F32,Accuracy top-1,69.5,1.1,4.2,16.9,105.9,1385.8,0.1,1491.7,0.7,2252.4,64.1,1.0,0.0,0.0,0.0,0.0,100.0,0.0,0.0,72.6,0.0,0.0,0,,,
imagenet,imagenet-mobilenet-v2,fp32,224x224,imx8m-nano,lne,GPU/CPU,F32,Accuracy top-1,71.8,0.6,3.5,14.0,106.2,1075.7,0.1,1181.9,0.8,2842.8,64.7,1.0,0.0,0.0,0.0,0.0,100.0,0.0,0.0,72.4,0.0,0.0,0,,,
imagenet,imagenet-mobilenet-v2,fp32,224x224,imx8m-nano,ncnn,GPU,F16,Accuracy top-1,71.8,0.6,3.5,7.0,/,/,/,/,/,/,0.0,0.0,0.0,0.0,0.0,0.0,0.0,0.0,0.0,0.0,0.0,0.0,0,,,
imagenet,imagenet-mobilenet-v2,fp32,224x224,imx8m-nano,ncnn,GPU,F32,Accuracy top-1,71.8,0.6,3.5,14.0,/,/,/,/,/,/,0.0,0.0,0.0,0.0,0.0,0.0,0.0,0.0,0.0,0.0,0.0,0.0,0,,,
imagenet,imagenet-mobilenetv3,large,223x224,imx8m-nano,lne,GPU/CPU,F32,Accuracy top-1,75.2,0.4,5.5,21.9,101.6,793.7,0.4,895.7,1.1,3751.1,67.5,1.1,0.0,0.0,0.0,0.0,100.0,0.0,0.0,72.1,0.0,0.0,0,,,
imagenet,imagenet-mobilenetv3,large,223x224,imx8m-nano,ncnn,GPU,F16,Accuracy top-1,75.2,0.4,5.5,10.9,/,/,/,/,/,/,0.0,0.0,0.0,0.0,0.0,0.0,0.0,0.0,0.0,0.0,0.0,0.0,0,,,
imagenet,imagenet-mobilenetv3,large,223x224,imx8m-nano,ncnn,GPU,F32,Accuracy top-1,75.2,0.4,5.5,21.9,/,/,/,/,/,/,0.0,0.0,0.0,0.0,0.0,0.0,0.0,0.0,0.0,0.0,0.0,0.0,0,,,
imagenet,imagenet-mobilenetv3,small,223x224,imx8m-nano,lne,GPU/CPU,F32,Accuracy top-1,67.4,0.1,2.9,11.8,102.5,264.4,0.3,367.2,2.7,9150.6,64.6,1.0,0.0,0.0,0.0,0.0,100.0,0.0,0.0,72.0,0.0,0.0,0,,,
imagenet,imagenet-mobilenetv3,small,223x224,imx8m-nano,ncnn,GPU,F16,Accuracy top-1,67.4,0.1,2.9,5.9,/,/,/,/,/,/,0.0,0.0,0.0,0.0,0.0,0.0,0.0,0.0,0.0,0.0,0.0,0.0,0,,,
imagenet,imagenet-mobilenetv3,small,223x224,imx8m-nano,ncnn,GPU,F32,Accuracy top-1,67.4,0.1,2.9,11.8,/,/,/,/,/,/,0.0,0.0,0.0,0.0,0.0,0.0,0.0,0.0,0.0,0.0,0.0,0.0,0,,,
imagenet,imagenet-resnet-resnet18,benchmark,224x224,imx8m-nano,lne,GPU/CPU,F32,Accuracy top-1,69.6,3.7,11.7,46.8,106.1,2460.0,0.6,2566.7,0.4,1309.1,75.5,1.2,0.0,0.0,0.0,0.0,100.0,0.0,0.0,73.0,0.0,0.0,0,,,
imagenet,imagenet-resnet-resnet32,caffe,224x224,imx8m-nano,lne,GPU/CPU,F32,Accuracy top-1,73.3,4.6,20.7,82.9,101.9,4128.8,0.1,4230.8,0.2,794.2,72.5,1.1,0.0,0.0,0.0,0.0,100.0,0.0,0.0,73.0,0.0,0.0,0,,,
imagenet,imagenet-resnet-resnet50,onnx,224x224,imx8m-nano,lne,GPU/CPU,F32,Accuracy top-1,76.0,7.7,25.5,102.1,126.9,6175.0,0.1,6301.9,0.2,533.2,83.6,1.3,0.0,0.0,0.0,0.0,100.0,0.0,0.0,73.0,0.0,0.0,0,,,
imagenet,imagenet-resnet-resnet50,onnx,224x224,imx8m-nano,ncnn,GPU,F16,Accuracy top-1,76.0,7.7,25.5,51.1,/,/,/,/,/,/,0.0,0.0,0.0,0.0,0.0,0.0,0.0,0.0,0.0,0.0,0.0,0.0,0,,,
imagenet,imagenet-resnet-resnet50,onnx,224x224,imx8m-nano,ncnn,GPU,F32,Accuracy top-1,76.0,7.7,25.5,102.1,/,/,/,/,/,/,0.0,0.0,0.0,0.0,0.0,0.0,0.0,0.0,0.0,0.0,0.0,0.0,0,,,
imagenet,imagenet-squeezenet,benchmark,227x227,imx8m-nano,lne,GPU/CPU,F32,Accuracy top-1,58.2,0.8,1.2,4.9,102.8,748.5,0.6,851.9,1.2,3944.3,63.4,1.0,0.0,0.0,0.0,0.0,100.0,0.0,0.0,72.1,0.0,0.0,0,,,
