MODEL,VERSION,INPUT_TILE,PLATFORM,ENGINE,PROCESSOR,PRECISION,GFLOPS,#PARAMS,STORAGE,PREPROCESSING TIME,INFERENCE TIME,POSTPROCESSING TIME,LATENCY,THROUGHPUT,DMIPS,CPU_MEM,CPU_MEM_PEAK,GPU_MEM,GPU_MEM_PEAK,MEMORY_BANDWIDTH,MEMORY_BANDWIDTH_PEAK,CPU_LOAD,GPU_LOAD,NPU_LOAD,CPU_TEMP,GPU_TEMP,POWER_CONSUMPTION,ENERGY_EFFICIENCY,CPU_NUM,THREAD_NUM,EVAL_TIME,AP,APM,APL,AR,ARM,ARL,OPSET_VERSION,CODE_VERSION,DATASET
body-pose-openpifpaf,shufflenetv2k30,120x120,x86_64,onnxruntime,GPU,fp32,-,-,181.0,3.1,43.6,479.5,526.3,1.9,-,0,0,0,0,0,0,0,0,0,0,0,0,-,-,-,0:22:45.948821,0.1,0.016,0.223,0.137,0.014,0.304,11,v1.0,wholebody
body-pose-openpifpaf,shufflenetv2k30,320x320,x86_64,onnxruntime,GPU,fp32,-,-,181.1,5.5,155.0,888.2,1048.7,1.0,-,0,0,0,0,0,0,0,0,0,0,0,0,-,-,-,0:44:25.940098,0.436,0.34,0.604,0.506,0.377,0.682,11,v1.0,wholebody
body-pose-openpifpaf,shufflenetv2k30,120x120,x86_64,tensorrt,GPU,fp32,-,-,181.2,2.9,20.7,483.4,507,2,-,0,0,0,0,0,0,0,0,0,0,0,0,-,-,-,0:21:38.693458,0.1,0.016,0.222,0.137,0.015,0.304,11,v1.0,wholebody
