AI_TASK,MODEL,VERSION,INPUT_TILE,PLATFORM,ENGINE,PROCESSOR,PRECISION,QUALITY_METRIC,QUALITY_VALUE,GFLOP,#PARAMS,STORAGE,PREPROCESSING_TIME,INFERENCE_TIME,POSTPROCESSING_TIME,LATENCY,THROUGHPUT,DMIPS,CPU_MEM,CPU_MEM_PEAK,GPU_MEM,GPU_MEM_PEAK,MEMORY_BANDWIDTH,MEMORY_BANDWIDTH_PEAK,CPU_LOAD,GPU_LOAD,NPU_LOAD,CPU_TEMP,GPU_TEMP,POWER_CONSUMPTION,ENERGY_EFFICIENCY,NOTES,UPDATED BY,LAST UPDATE
3D-face-landmarks,face-landmarks-detection-3ddfa,default,120x120,x86-64-nuc,lne,CPU,F32,/,/,0.4,3.3,13.0,0.5,16.6,0.1,17.2,58.2,11610858.6,12.0,0.6,0.0,0.0,0.0,0.0,38.9,0.0,0.0,-263.2,0.0,0.0,0,,,
bodypose-estimation,body-pose-openpifpaf,resnet50-012-13,160x120,x86-64-nuc,lne,CPU,F32,/,/,13.0,27.4,109.7,0.6,235.4,2.2,238.2,4.2,837346.0,13.5,0.8,0.0,0.0,0.0,0.0,49.2,0.0,0.0,-263.2,0.0,0.0,0,,,
bodypose-estimation,body-pose-openpifpaf,resnet50-012-13,320x240,x86-64-nuc,lne,CPU,F32,/,/,51.5,27.4,109.7,1.1,820.9,3.5,825.6,1.2,241631.0,14.2,0.8,0.0,0.0,0.0,0.0,50.9,0.0,0.0,-263.2,0.0,0.0,0,,,
bodypose-estimation,body-pose-openpifpaf,resnet50-012-13,640x480,x86-64-nuc,lne,CPU,F32,/,/,205.8,27.5,109.9,4.4,3424.9,35.4,3464.7,0.3,57576.1,18.1,1.1,0.0,0.0,0.0,0.0,51.7,0.0,0.0,-263.2,0.0,0.0,0,,,
bodypose-estimation,body-pose-openpifpaf,resnet50-012,161x129,x86-64-nuc,lne,CPU,F32,/,/,14.9,25.6,102.3,0.6,265.7,4.2,270.4,3.7,737653.1,12.5,0.7,0.0,0.0,0.0,0.0,49.5,0.0,0.0,-263.2,0.0,0.0,0,,,
bodypose-estimation,body-pose-openpifpaf,resnet50-012,321x241,x86-64-nuc,lne,CPU,F32,/,/,53.1,25.6,102.3,0.8,843.0,13.8,857.6,1.2,232604.4,14.3,0.8,0.0,0.0,0.0,0.0,51.0,0.0,0.0,-263.2,0.0,0.0,0,,,
bodypose-estimation,body-pose-openpifpaf,resnet50-012,321x321,x86-64-nuc,lne,CPU,F32,/,/,70.3,25.6,102.4,1.1,1137.2,18.8,1157.0,0.9,172408.6,14.8,0.9,0.0,0.0,0.0,0.0,51.2,0.0,0.0,-263.2,0.0,0.0,0,,,
bodypose-estimation,body-pose-openpifpaf,resnet50-012,641x481,x86-64-nuc,lne,CPU,F32,/,/,206.9,25.6,102.4,3.2,3433.9,48.4,3485.5,0.3,57232.3,18.4,1.2,0.0,0.0,0.0,0.0,51.7,0.0,0.0,-263.2,0.0,0.0,0,,,
face-landmarks-detection,face-landmarks-detection-retinaface,mobile0.25mod4lite-12-48,320x320,x86-64-nuc,lne,CPU,F32,AP-medium,43.8,0.3,0.2,0.9,2.1,26.2,1.3,29.7,33.7,6726421.1,11.1,0.6,0.0,0.0,0.0,0.0,40.0,0.0,0.0,-263.2,0.0,0.0,0,,,
face-landmarks-detection,face-landmarks-detection-retinaface,mobile0.25mod4lite-12-48,320x185,x86-64-nuc,lne,CPU,F32,AP-medium,31.9,0.2,0.2,0.9,1.2,15.7,0.8,17.7,56.5,11272669.9,11.8,0.6,0.0,0.0,0.0,0.0,38.1,0.0,0.0,-263.2,0.0,0.0,0,,,
face-landmarks-detection,face-landmarks-detection-retinaface,mobile0.25mod4lite-12-48,320x250,x86-64-nuc,lne,CPU,F32,AP-medium,41.7,0.3,0.2,0.9,1.9,21.0,1.5,24.4,41.0,8185239.1,11.7,0.6,0.0,0.0,0.0,0.0,39.0,0.0,0.0,-263.2,0.0,0.0,0,,,
face-landmarks-detection,face-landmarks-detection-retinaface,mobile0.25mod4lite-12-48,640x640,x86-64-nuc,lne,CPU,F32,AP-medium,73.9,1.3,0.2,0.9,5.0,101.6,4.7,111.4,9.0,1791191.2,12.5,0.7,0.0,0.0,0.0,0.0,46.3,0.0,0.0,-263.2,0.0,0.0,0,,,
face-landmarks-detection,face-landmarks-detection-retinaface,mobile0.25mod4lite-12-48,640x380,x86-64-nuc,lne,CPU,F32,AP-medium,67.2,0.8,0.2,0.9,3.5,64.7,3.2,71.5,14.0,2791156.3,12.0,0.6,0.0,0.0,0.0,0.0,44.3,0.0,0.0,-263.2,0.0,0.0,0,,,
face-landmarks-detection,face-landmarks-detection-retinaface,mobile0.25mod4lite-12-48,640x480,x86-64-nuc,lne,CPU,F32,AP-medium,72.3,1.0,0.2,0.9,4.3,77.8,3.6,85.6,11.7,2329555.1,12.2,0.6,0.0,0.0,0.0,0.0,45.4,0.0,0.0,-263.2,0.0,0.0,0,,,
face-landmarks-detection,face-landmarks-detection-retinaface,mobile0.25mod4lite-16-64,320x320,x86-64-nuc,lne,CPU,F32,AP-medium,53.4,0.5,0.4,1.7,2.2,36.9,1.4,40.5,24.7,4920801.2,11.5,0.6,0.0,0.0,0.0,0.0,41.6,0.0,0.0,-263.2,0.0,0.0,0,,,
face-landmarks-detection,face-landmarks-detection-retinaface,mobile0.25mod4lite-16-64,320x185,x86-64-nuc,lne,CPU,F32,AP-medium,42.2,0.3,0.4,1.7,1.4,27.3,1.1,29.9,33.5,6677478.6,11.7,0.6,0.0,0.0,0.0,0.0,40.5,0.0,0.0,-263.2,0.0,0.0,0,,,
face-landmarks-detection,face-landmarks-detection-retinaface,mobile0.25mod4lite-16-64,320x250,x86-64-nuc,lne,CPU,F32,AP-medium,51.9,0.4,0.4,1.7,1.9,28.5,1.5,31.9,31.4,6258027.0,11.2,0.6,0.0,0.0,0.0,0.0,40.8,0.0,0.0,-263.2,0.0,0.0,0,,,
face-landmarks-detection,face-landmarks-detection-retinaface,mobile0.25mod4lite-16-64,640x640,x86-64-nuc,lne,CPU,F32,AP-medium,79.9,2.1,0.4,1.7,4.6,134.7,4.7,144.0,6.9,1385545.7,12.3,0.7,0.0,0.0,0.0,0.0,47.2,0.0,0.0,-263.2,0.0,0.0,0,,,
face-landmarks-detection,face-landmarks-detection-retinaface,mobile0.25mod4lite-16-64,640x380,x86-64-nuc,lne,CPU,F32,AP-medium,75.0,1.3,0.4,1.7,3.4,80.6,3.0,87.0,11.5,2293069.7,11.9,0.6,0.0,0.0,0.0,0.0,45.5,0.0,0.0,-263.2,0.0,0.0,0,,,
face-landmarks-detection,face-landmarks-detection-retinaface,mobile0.25mod4lite-16-64,640x480,x86-64-nuc,lne,CPU,F32,AP-medium,78.7,1.6,0.4,1.7,3.8,100.1,3.4,107.3,9.3,1859169.7,11.4,0.6,0.0,0.0,0.0,0.0,46.1,0.0,0.0,-263.2,0.0,0.0,0,,,
face-landmarks-detection,face-landmarks-detection-retinaface,mobile0.25mod4lite-32-72,320x320,x86-64-nuc,lne,CPU,F32,AP-medium,61.9,0.9,0.7,2.9,2.2,61.8,1.4,65.4,15.3,3050126.8,11.7,0.6,0.0,0.0,0.0,0.0,44.2,0.0,0.0,-263.2,0.0,0.0,0,,,
face-landmarks-detection,face-landmarks-detection-retinaface,mobile0.25mod4lite-32-72,320x185,x86-64-nuc,lne,CPU,F32,AP-medium,50.5,0.6,0.7,2.9,1.2,35.7,0.9,37.7,26.5,5285906.9,11.4,0.6,0.0,0.0,0.0,0.0,41.3,0.0,0.0,-263.2,0.0,0.0,0,,,
face-landmarks-detection,face-landmarks-detection-retinaface,mobile0.25mod4lite-32-72,320x250,x86-64-nuc,lne,CPU,F32,AP-medium,60.3,0.7,0.7,2.9,2.0,50.4,1.6,54.0,18.5,3697219.6,11.9,0.6,0.0,0.0,0.0,0.0,42.9,0.0,0.0,-263.2,0.0,0.0,0,,,
face-landmarks-detection,face-landmarks-detection-retinaface,mobile0.25mod4lite-32-72,640x640,x86-64-nuc,lne,CPU,F32,AP-medium,84.0,3.7,0.7,2.9,4.2,223.4,4.7,232.4,4.3,858494.6,13.1,0.7,0.0,0.0,0.0,0.0,48.9,0.0,0.0,-263.2,0.0,0.0,0,,,
face-landmarks-detection,face-landmarks-detection-retinaface,mobile0.25mod4lite-32-72,640x380,x86-64-nuc,lne,CPU,F32,AP-medium,79.7,2.2,0.7,2.9,2.8,134.5,2.8,140.2,7.1,1423266.8,12.1,0.6,0.0,0.0,0.0,0.0,47.2,0.0,0.0,-263.2,0.0,0.0,0,,,
face-landmarks-detection,face-landmarks-detection-retinaface,mobile0.25mod4lite-32-72,640x480,x86-64-nuc,lne,CPU,F32,AP-medium,82.9,2.8,0.7,2.9,3.4,164.2,3.4,171.0,5.8,1166847.6,12.6,0.7,0.0,0.0,0.0,0.0,47.9,0.0,0.0,-263.2,0.0,0.0,0,,,
face-landmarks-detection,face-landmarks-detection-retinaface,mobile0.25mod4lite-48-96,320x320,x86-64-nuc,lne,CPU,F32,AP-medium,64.0,1.7,1.4,5.7,2.1,87.8,1.3,91.2,11.0,2187815.6,11.7,0.6,0.0,0.0,0.0,0.0,45.5,0.0,0.0,-263.2,0.0,0.0,0,,,
face-landmarks-detection,face-landmarks-detection-retinaface,mobile0.25mod4lite-48-96,320x185,x86-64-nuc,lne,CPU,F32,AP-medium,52.2,1.0,1.4,5.7,1.2,54.0,0.8,56.0,17.8,3559619.0,12.0,0.6,0.0,0.0,0.0,0.0,43.2,0.0,0.0,-263.2,0.0,0.0,0,,,
face-landmarks-detection,face-landmarks-detection-retinaface,mobile0.25mod4lite-48-96,320x250,x86-64-nuc,lne,CPU,F32,AP-medium,62.5,1.3,1.4,5.7,1.9,69.3,1.4,72.6,13.8,2748149.3,11.8,0.6,0.0,0.0,0.0,0.0,44.6,0.0,0.0,-263.2,0.0,0.0,0,,,
face-landmarks-detection,face-landmarks-detection-retinaface,mobile0.25mod4lite-48-96,640x640,x86-64-nuc,lne,CPU,F32,AP-medium,86.0,6.6,1.4,5.7,4.0,324.3,4.6,333.0,3.0,599093.0,13.6,0.8,0.0,0.0,0.0,0.0,50.0,0.0,0.0,-263.2,0.0,0.0,0,,,
face-landmarks-detection,face-landmarks-detection-retinaface,mobile0.25mod4lite-48-96,640x380,x86-64-nuc,lne,CPU,F32,AP-medium,81.6,3.9,1.4,5.7,2.7,191.9,2.8,197.3,5.1,1010820.4,12.5,0.7,0.0,0.0,0.0,0.0,48.4,0.0,0.0,-263.2,0.0,0.0,0,,,
face-landmarks-detection,face-landmarks-detection-retinaface,mobile0.25mod4lite-48-96,640x480,x86-64-nuc,lne,CPU,F32,AP-medium,84.9,4.9,1.4,5.7,3.1,239.7,3.4,246.2,4.1,810097.9,12.2,0.7,0.0,0.0,0.0,0.0,48.9,0.0,0.0,-263.2,0.0,0.0,0,,,
face-landmarks-detection,face-landmarks-detection-retinaface,mobile0.25mod4lite-64-128,320x320,x86-64-nuc,lne,CPU,F32,AP-medium,68.4,2.9,2.5,10.0,1.4,124.2,1.3,126.9,7.9,1571703.6,11.8,0.6,0.0,0.0,0.0,0.0,46.8,0.0,0.0,-263.2,0.0,0.0,0,,,
face-landmarks-detection,face-landmarks-detection-retinaface,mobile0.25mod4lite-64-128,320x185,x86-64-nuc,lne,CPU,F32,AP-medium,56.9,1.7,2.5,10.0,0.9,74.3,0.8,76.0,13.2,2624646.9,12.6,0.7,0.0,0.0,0.0,0.0,44.6,0.0,0.0,-263.2,0.0,0.0,0,,,
face-landmarks-detection,face-landmarks-detection-retinaface,mobile0.25mod4lite-64-128,320x250,x86-64-nuc,lne,CPU,F32,AP-medium,66.5,2.3,2.5,10.0,1.2,99.1,1.0,101.3,9.9,1969072.9,11.5,0.6,0.0,0.0,0.0,0.0,45.9,0.0,0.0,-263.2,0.0,0.0,0,,,
face-landmarks-detection,face-landmarks-detection-retinaface,mobile0.25mod4lite-64-128,640x640,x86-64-nuc,lne,CPU,F32,AP-medium,87.3,11.4,2.5,10.0,4.4,492.2,4.9,501.4,2.0,397833.5,14.2,0.8,0.0,0.0,0.0,0.0,50.3,0.0,0.0,-263.2,0.0,0.0,0,,,
face-landmarks-detection,face-landmarks-detection-retinaface,mobile0.25mod4lite-64-128,640x380,x86-64-nuc,lne,CPU,F32,AP-medium,83.3,6.8,2.5,10.0,2.7,277.4,2.8,282.9,3.5,705115.4,13.6,0.8,0.0,0.0,0.0,0.0,49.2,0.0,0.0,-263.2,0.0,0.0,0,,,
face-landmarks-detection,face-landmarks-detection-retinaface,mobile0.25mod4lite-64-128,640x480,x86-64-nuc,lne,CPU,F32,AP-medium,86.2,8.6,2.5,10.0,3.1,342.9,3.4,349.4,2.9,571015.3,13.1,0.7,0.0,0.0,0.0,0.0,49.6,0.0,0.0,-263.2,0.0,0.0,0,,,
incar-object-detection,incar-object-detection-nanodet,resnet50,320x320,x86-64-nuc,lne,CPU,F32,/,/,17.4,24.4,97.4,2.2,309.2,0.4,311.9,3.2,639682.5,13.7,0.8,0.0,0.0,0.0,0.0,49.6,0.0,0.0,-263.2,0.0,0.0,0,,,
incar-object-detection,incar-object-detection-nanodet,resnet50,640x640,x86-64-nuc,lne,CPU,F32,/,/,81.4,28.5,114.1,8.2,1428.7,1.1,1438.0,0.7,138721.9,14.6,0.8,0.0,0.0,0.0,0.0,51.3,0.0,0.0,-263.2,0.0,0.0,0,,,
incar-object-detection,incar-object-detection-nanodet,resnet50,640x480,x86-64-nuc,lne,CPU,F32,/,/,52.0,24.4,97.4,4.3,1222.6,0.7,1227.6,0.8,162497.9,14.6,0.8,0.0,0.0,0.0,0.0,51.2,0.0,0.0,-263.2,0.0,0.0,0,,,
face-recognition,face-recognition-insightsface-mobilefacenet,mxnet,112x112,x86-64-nuc,lne,CPU,F32,/,/,0.4,1.0,4.0,0.4,27.0,0.0,27.4,36.5,7272283.8,12.2,0.6,0.0,0.0,0.0,0.0,41.2,0.0,0.0,-263.2,0.0,0.0,0,,,
age-gender-estimation,age-gender-insightface,mobilenet_0_25x,112x112,x86-64-nuc,lne,CPU,F32,/,/,0.1,0.3,1.1,0.4,8.2,0.0,8.6,116.1,23157773.8,12.2,0.6,0.0,0.0,0.0,0.0,37.5,0.0,0.0,-263.2,0.0,0.0,0,,,
emotion-classification,emotion-classic-light-112x96,default_onnx,96x112,x86-64-nuc,lne,CPU,F32,/,/,0.4,2.7,10.8,0.7,10.8,0.0,11.5,86.9,17333182.7,11.3,0.6,0.0,0.0,0.0,0.0,38.9,0.0,0.0,-263.2,0.0,0.0,0,,,
emotion-classification,emotion-classic-light-112x96,moonshine_onnx,96x112,x86-64-nuc,lne,CPU,F32,/,/,0.2,0.1,0.6,0.7,12.6,0.0,13.3,75.4,15038651.1,11.0,0.5,0.0,0.0,0.0,0.0,39.8,0.0,0.0,-263.2,0.0,0.0,0,,,
emotion-classification,emotion-classic-light-112x96,student_g1,96x112,x86-64-nuc,lne,CPU,F32,/,/,0.6,0.4,1.6,0.7,16.9,0.0,17.5,57.0,11372369.1,11.6,0.6,0.0,0.0,0.0,0.0,40.6,0.0,0.0,-263.2,0.0,0.0,0,,,
emotion-classification,emotion-classic-light-112x96,student_g16,96x112,x86-64-nuc,lne,CPU,F32,/,/,0.1,0.1,0.3,0.8,15.2,0.0,16.0,62.6,12480987.7,11.0,0.5,0.0,0.0,0.0,0.0,41.1,0.0,0.0,-263.2,0.0,0.0,0,,,
emotion-classification,emotion-classic-light-112x96,student_g2,96x112,x86-64-nuc,lne,CPU,F32,/,/,0.4,0.2,0.9,1.0,24.4,0.0,25.4,39.4,7861964.3,11.5,0.6,0.0,0.0,0.0,0.0,42.9,0.0,0.0,-263.2,0.0,0.0,0,,,
emotion-classification,emotion-classic-light-112x96,student_g32,96x112,x86-64-nuc,lne,CPU,F32,/,/,0.1,0.1,0.3,0.7,13.4,0.0,14.1,70.8,14128703.4,11.5,0.6,0.0,0.0,0.0,0.0,39.9,0.0,0.0,-263.2,0.0,0.0,0,,,
emotion-classification,emotion-classic-light-112x96,student_g4,96x112,x86-64-nuc,lne,CPU,F32,/,/,0.2,0.1,0.6,0.7,13.0,0.0,13.7,73.1,14591356.4,12.1,0.6,0.0,0.0,0.0,0.0,40.2,0.0,0.0,-263.2,0.0,0.0,0,,,
emotion-classification,emotion-classic-light-112x96,student_g8,96x112,x86-64-nuc,lne,CPU,F32,/,/,0.2,0.1,0.4,0.7,12.5,0.0,13.2,75.7,15099116.7,11.0,0.5,0.0,0.0,0.0,0.0,39.1,0.0,0.0,-263.2,0.0,0.0,0,,,
emotion-classification,emotion-classic-light-112x96,teacher_onnx,96x112,x86-64-nuc,lne,CPU,F32,/,/,0.5,8.5,33.8,1.0,27.5,0.0,28.5,35.1,6999424.6,11.7,0.6,0.0,0.0,0.0,0.0,43.0,0.0,0.0,-263.2,0.0,0.0,0,,,
eyegaze,eyegaze-rankgaze,mobilefacenet-mpiigaze,224x224,x86-64-nuc,lne,CPU,F32,Avg MAE,5.66,1.9,4.2,16.6,2.8,123.9,0.0,126.7,7.9,1574213.5,12.8,0.7,0.0,0.0,0.0,0.0,48.0,0.0,0.0,-263.2,0.0,0.0,0,,,
eyegaze,eyegaze-rankgaze,mobilefacenet-mpiigaze-righteye-t50,32x32,x86-64-nuc,lne,CPU,F32,Avg MAE,5.9,0.0,4.1,16.2,0.1,5.7,0.0,5.8,171.5,34209646.3,11.5,0.6,0.0,0.0,0.0,0.0,36.8,0.0,0.0,-263.2,0.0,0.0,0,,,
eyegaze,eyegaze-rankgaze,mobilefacenet-mpiigaze-righteye-t50,48x32,x86-64-nuc,lne,CPU,F32,Avg MAE,7.25,0.1,4.1,16.2,0.1,9.4,0.0,9.5,104.8,20912372.1,11.3,0.6,0.0,0.0,0.0,0.0,38.8,0.0,0.0,-263.2,0.0,0.0,0,,,
eyegaze,eyegaze-rankgaze,mobilefacenet-mpiigaze-righteye-t50,64x48,x86-64-nuc,lne,CPU,F32,Avg MAE,6.32,0.1,4.1,16.2,0.1,9.4,0.0,9.6,104.5,20844849.4,12.6,0.7,0.0,0.0,0.0,0.0,37.7,0.0,0.0,-263.2,0.0,0.0,0,,,
eyegaze,eyegaze-rankgaze,mobilefacenet-mpiigaze-righteye-t50,64x64,x86-64-nuc,lne,CPU,F32,Avg MAE,5.82,0.2,4.1,16.2,0.1,11.3,0.0,11.4,87.7,17496781.1,12.4,0.7,0.0,0.0,0.0,0.0,39.0,0.0,0.0,-263.2,0.0,0.0,0,,,
eyegaze,eyegaze-rankgaze,resnet50-mpiigaze,224x224,x86-64-nuc,lne,CPU,F32,/,/,8.2,25.6,102.3,2.8,168.5,0.0,171.2,5.8,1164896.3,12.8,0.7,0.0,0.0,0.0,0.0,49.0,0.0,0.0,-263.2,0.0,0.0,0,,,
headpose-estimation,headpose-rankpose,mobilefacenetfc512,192x224,x86-64-nuc,lne,CPU,F32,Avg MAE,4.63,1.6,6.3,25.2,1.0,97.1,0.0,98.2,10.2,2032169.0,11.4,0.6,0.0,0.0,0.0,0.0,47.3,0.0,0.0,-263.2,0.0,0.0,0,,,
headpose-estimation,headpose-rankpose,mobilefacenetfc512,224x224,x86-64-nuc,lne,CPU,F32,Avg MAE,4.43,1.9,6.3,25.3,1.2,117.5,0.0,118.8,8.4,1679837.6,12.1,0.6,0.0,0.0,0.0,0.0,47.5,0.0,0.0,-263.2,0.0,0.0,0,,,
headpose-estimation,headpose-rankpose,mobilefacenetfc512,96x112,x86-64-nuc,lne,CPU,F32,Avg MAE,4.63,0.4,6.2,25.0,0.4,28.1,0.0,28.5,35.1,6999481.1,11.9,0.6,0.0,0.0,0.0,0.0,41.6,0.0,0.0,-263.2,0.0,0.0,0,,,
headpose-estimation,headpose-rankpose,mobilefacenetfc512onlypose,96x112,x86-64-nuc,lne,CPU,F32,Avg MAE,4.34,0.4,3.0,12.1,0.4,28.6,0.0,29.0,34.5,6872385.2,11.4,0.6,0.0,0.0,0.0,0.0,41.5,0.0,0.0,-263.2,0.0,0.0,0,,,
headpose-estimation,headpose-rankpose,mobilefacenetonlyposefc512,112x112,x86-64-nuc,lne,CPU,F32,Avg MAE,4.38,0.5,3.0,12.1,0.5,35.0,0.0,35.4,28.2,5629762.4,12.4,0.7,0.0,0.0,0.0,0.0,43.3,0.0,0.0,-263.2,0.0,0.0,0,,,
headpose-estimation,headpose-rankpose,resnet50,224x224,x86-64-nuc,lne,CPU,F32,/,/,8.2,23.8,95.1,1.2,164.5,0.0,165.7,6.0,1203811.9,13.2,0.7,0.0,0.0,0.0,0.0,48.8,0.0,0.0,-263.2,0.0,0.0,0,,,
imagenet,imagenet-alexnet,benchmark,227x227,x86-64-nuc,lne,CPU,F32,Accuracy top-1,56.6,1.4,61.0,243.9,1.2,53.6,0.0,54.9,18.2,3636868.5,15.0,0.9,0.0,0.0,0.0,0.0,43.9,0.0,0.0,-263.2,0.0,0.0,0,,,
imagenet,imagenet-efficientb0,default,224x224,x86-64-nuc,lne,CPU,F32,Accuracy top-1,77.1,0.8,5.3,21.1,1.2,101.7,0.0,103.0,9.7,1937403.5,12.5,0.7,0.0,0.0,0.0,0.0,45.4,0.0,0.0,-263.2,0.0,0.0,0,,,
imagenet,imagenet-googlenet,benchmark,224x224,x86-64-nuc,lne,CPU,F32,Accuracy top-1,66.5,3.2,7.0,28.0,1.2,111.1,0.0,112.4,8.9,1775177.8,11.5,0.6,0.0,0.0,0.0,0.0,46.2,0.0,0.0,-263.2,0.0,0.0,0,,,
imagenet,imagenet-mobilenet,default,224x224,x86-64-nuc,lne,CPU,F32,Accuracy top-1,69.5,1.1,4.2,16.9,1.2,50.2,0.0,51.5,19.4,3874280.5,12.5,0.7,0.0,0.0,0.0,0.0,43.1,0.0,0.0,-263.2,0.0,0.0,0,,,
imagenet,imagenet-mobilenet-v2,fp32,224x224,x86-64-nuc,lne,CPU,F32,Accuracy top-1,71.8,0.6,3.5,14.0,1.2,55.8,0.0,57.0,17.5,3498081.7,12.5,0.7,0.0,0.0,0.0,0.0,43.2,0.0,0.0,-263.2,0.0,0.0,0,,,
imagenet,imagenet-mobilenetv3,large,223x224,x86-64-nuc,lne,CPU,F32,Accuracy top-1,75.2,0.4,5.5,21.9,0.8,45.5,0.0,46.4,21.6,4303608.7,12.3,0.7,0.0,0.0,0.0,0.0,41.8,0.0,0.0,-263.2,0.0,0.0,0,,,
imagenet,imagenet-mobilenetv3,small,223x224,x86-64-nuc,lne,CPU,F32,Accuracy top-1,67.4,0.1,2.9,11.8,1.0,17.5,0.0,18.6,53.9,10747286.2,12.4,0.7,0.0,0.0,0.0,0.0,37.4,0.0,0.0,-263.2,0.0,0.0,0,,,
imagenet,imagenet-resnet-resnet18,benchmark,224x224,x86-64-nuc,lne,CPU,F32,Accuracy top-1,69.6,3.7,11.7,46.8,1.4,98.6,0.0,100.1,10.0,1993209.4,11.5,0.6,0.0,0.0,0.0,0.0,46.3,0.0,0.0,-263.2,0.0,0.0,0,,,
imagenet,imagenet-resnet-resnet32,caffe,224x224,x86-64-nuc,lne,CPU,F32,Accuracy top-1,73.3,4.6,20.7,82.9,1.2,105.5,0.0,106.8,9.4,1868438.4,12.6,0.7,0.0,0.0,0.0,0.0,46.5,0.0,0.0,-263.2,0.0,0.0,0,,,
imagenet,imagenet-resnet-resnet50,onnx,224x224,x86-64-nuc,lne,CPU,F32,Accuracy top-1,76.0,7.7,25.5,102.1,1.2,157.1,0.0,158.4,6.3,1259559.3,12.2,0.6,0.0,0.0,0.0,0.0,47.8,0.0,0.0,-263.2,0.0,0.0,0,,,
imagenet,imagenet-squeezenet,benchmark,227x227,x86-64-nuc,lne,CPU,F32,Accuracy top-1,58.2,0.8,1.2,4.9,1.2,29.9,0.0,31.1,32.1,6408123.1,12.5,0.7,0.0,0.0,0.0,0.0,40.4,0.0,0.0,-263.2,0.0,0.0,0,,,
