AI_TASK,MODEL,VERSION,INPUT_TILE,PLATFORM,ENGINE,PROCESSOR,PRECISION,QUALITY_METRIC,QUALITY_VALUE,GFLOP,#PARAMS,STORAGE,PREPROCESSING_TIME,INFERENCE_TIME,POSTPROCESSING_TIME,LATENCY,THROUGHPUT,DMIPS,CPU_MEM,CPU_MEM_PEAK,GPU_MEM,GPU_MEM_PEAK,MEMORY_BANDWIDTH,MEMORY_BANDWIDTH_PEAK,CPU_LOAD,GPU_LOAD,NPU_LOAD,CPU_TEMP,GPU_TEMP,POWER_CONSUMPTION,ENERGY_EFFICIENCY,NOTES,UPDATED BY,LAST UPDATE
3D-face-landmarks,face-landmarks-detection-3ddfa,default,120x120,stm32mp1,lne,CPU,F32,/,/,0.4,3.3,13.0,13.5,535.8,0.8,550.1,1.8,3.6,46.2,0.2,0.0,0.0,0.0,0.0,98.9,0.0,0.0,49.8,0.0,0.0,0,,,
bodypose-estimation,body-pose-openpifpaf,resnet50-012-13,160x120,stm32mp1,lne,CPU,F32,/,/,13.0,27.4,109.7,/,/,/,/,/,/,0.0,0.0,0.0,0.0,0.0,0.0,0.0,0.0,0.0,0.0,0.0,0.0,0,,,
bodypose-estimation,body-pose-openpifpaf,resnet50-012-13,320x240,stm32mp1,lne,CPU,F32,/,/,51.5,27.4,109.7,/,/,/,/,/,/,0.0,0.0,0.0,0.0,0.0,0.0,0.0,0.0,0.0,0.0,0.0,0.0,0,,,
bodypose-estimation,body-pose-openpifpaf,resnet50-012-13,640x480,stm32mp1,lne,CPU,F32,/,/,205.8,27.5,109.9,/,/,/,/,/,/,0.0,0.0,0.0,0.0,0.0,0.0,0.0,0.0,0.0,0.0,0.0,0.0,0,,,
bodypose-estimation,body-pose-openpifpaf,resnet50-012,161x129,stm32mp1,lne,CPU,F32,/,/,14.9,25.6,102.3,/,/,/,/,/,/,0.0,0.0,0.0,0.0,0.0,0.0,0.0,0.0,0.0,0.0,0.0,0.0,0,,,
bodypose-estimation,body-pose-openpifpaf,resnet50-012,321x241,stm32mp1,lne,CPU,F32,/,/,53.1,25.6,102.3,/,/,/,/,/,/,0.0,0.0,0.0,0.0,0.0,0.0,0.0,0.0,0.0,0.0,0.0,0.0,0,,,
bodypose-estimation,body-pose-openpifpaf,resnet50-012,321x321,stm32mp1,lne,CPU,F32,/,/,70.3,25.6,102.4,/,/,/,/,/,/,0.0,0.0,0.0,0.0,0.0,0.0,0.0,0.0,0.0,0.0,0.0,0.0,0,,,
bodypose-estimation,body-pose-openpifpaf,resnet50-012,641x481,stm32mp1,lne,CPU,F32,/,/,206.9,25.6,102.4,/,/,/,/,/,/,0.0,0.0,0.0,0.0,0.0,0.0,0.0,0.0,0.0,0.0,0.0,0.0,0,,,
face-landmarks-detection,face-landmarks-detection-retinaface,mobile0.25mod4lite-12-48,320x320,stm32mp1,lne,CPU,F32,AP-medium,43.8,0.3,0.2,0.9,62.5,674.3,41.1,777.9,1.3,2.6,49.0,0.2,0.0,0.0,0.0,0.0,99.8,0.0,0.0,50.0,0.0,0.0,0,,,
face-landmarks-detection,face-landmarks-detection-retinaface,mobile0.25mod4lite-12-48,320x185,stm32mp1,lne,CPU,F32,AP-medium,31.9,0.2,0.2,0.9,35.4,401.1,24.7,461.2,2.2,4.3,44.0,0.2,0.0,0.0,0.0,0.0,99.5,0.0,0.0,49.7,0.0,0.0,0,,,
face-landmarks-detection,face-landmarks-detection-retinaface,mobile0.25mod4lite-12-48,320x250,stm32mp1,lne,CPU,F32,AP-medium,41.7,0.3,0.2,0.9,49.3,539.7,32.8,621.8,1.6,3.2,45.0,0.2,0.0,0.0,0.0,0.0,99.7,0.0,0.0,49.9,0.0,0.0,0,,,
face-landmarks-detection,face-landmarks-detection-retinaface,mobile0.25mod4lite-12-48,640x640,stm32mp1,lne,CPU,F32,AP-medium,73.9,1.3,0.2,0.9,267.6,2728.3,208.8,3204.7,0.3,0.6,60.3,0.2,0.0,0.0,0.0,0.0,99.9,0.0,0.0,50.4,0.0,0.0,0,,,
face-landmarks-detection,face-landmarks-detection-retinaface,mobile0.25mod4lite-12-48,640x380,stm32mp1,lne,CPU,F32,AP-medium,67.2,0.8,0.2,0.9,165.7,1609.2,125.6,1900.5,0.5,1.1,59.3,0.2,0.0,0.0,0.0,0.0,99.9,0.0,0.0,50.3,0.0,0.0,0,,,
face-landmarks-detection,face-landmarks-detection-retinaface,mobile0.25mod4lite-12-48,640x480,stm32mp1,lne,CPU,F32,AP-medium,72.3,1.0,0.2,0.9,209.2,2046.2,161.3,2416.7,0.4,0.8,57.4,0.2,0.0,0.0,0.0,0.0,100.0,0.0,0.0,50.4,0.0,0.0,0,,,
face-landmarks-detection,face-landmarks-detection-retinaface,mobile0.25mod4lite-16-64,320x320,stm32mp1,lne,CPU,F32,AP-medium,53.4,0.5,0.4,1.7,58.7,859.9,41.1,959.8,1.0,2.1,51.5,0.2,0.0,0.0,0.0,0.0,99.8,0.0,0.0,50.0,0.0,0.0,0,,,
face-landmarks-detection,face-landmarks-detection-retinaface,mobile0.25mod4lite-16-64,320x185,stm32mp1,lne,CPU,F32,AP-medium,42.2,0.3,0.4,1.7,35.8,506.4,25.1,567.3,1.8,3.5,51.6,0.2,0.0,0.0,0.0,0.0,99.6,0.0,0.0,50.0,0.0,0.0,0,,,
face-landmarks-detection,face-landmarks-detection-retinaface,mobile0.25mod4lite-16-64,320x250,stm32mp1,lne,CPU,F32,AP-medium,51.9,0.4,0.4,1.7,48.0,688.4,33.1,769.4,1.3,2.6,48.1,0.2,0.0,0.0,0.0,0.0,99.7,0.0,0.0,50.5,0.0,0.0,0,,,
face-landmarks-detection,face-landmarks-detection-retinaface,mobile0.25mod4lite-16-64,640x640,stm32mp1,lne,CPU,F32,AP-medium,79.9,2.1,0.4,1.7,272.5,3420.8,208.8,3902.1,0.3,0.5,77.2,0.3,0.0,0.0,0.0,0.0,100.0,0.0,0.0,50.5,0.0,0.0,0,,,
face-landmarks-detection,face-landmarks-detection-retinaface,mobile0.25mod4lite-16-64,640x380,stm32mp1,lne,CPU,F32,AP-medium,75.0,1.3,0.4,1.7,164.1,2058.0,124.4,2346.5,0.4,0.9,65.7,0.2,0.0,0.0,0.0,0.0,99.9,0.0,0.0,51.2,0.0,0.0,0,,,
face-landmarks-detection,face-landmarks-detection-retinaface,mobile0.25mod4lite-16-64,640x480,stm32mp1,lne,CPU,F32,AP-medium,78.7,1.6,0.4,1.7,204.7,2568.5,161.0,2934.2,0.3,0.7,67.9,0.3,0.0,0.0,0.0,0.0,100.0,0.0,0.0,51.4,0.0,0.0,0,,,
face-landmarks-detection,face-landmarks-detection-retinaface,mobile0.25mod4lite-32-72,320x320,stm32mp1,lne,CPU,F32,AP-medium,61.9,0.9,0.7,2.9,58.3,1470.9,40.7,1569.8,0.6,1.3,58.8,0.2,0.0,0.0,0.0,0.0,99.9,0.0,0.0,51.0,0.0,0.0,0,,,
face-landmarks-detection,face-landmarks-detection-retinaface,mobile0.25mod4lite-32-72,320x185,stm32mp1,lne,CPU,F32,AP-medium,50.5,0.6,0.7,2.9,36.1,864.2,24.1,924.5,1.1,2.2,55.4,0.2,0.0,0.0,0.0,0.0,99.9,0.0,0.0,50.8,0.0,0.0,0,,,
face-landmarks-detection,face-landmarks-detection-retinaface,mobile0.25mod4lite-32-72,320x250,stm32mp1,lne,CPU,F32,AP-medium,60.3,0.7,0.7,2.9,51.2,1151.8,38.2,1241.2,0.8,1.6,57.5,0.2,0.0,0.0,0.0,0.0,99.9,0.0,0.0,50.8,0.0,0.0,0,,,
face-landmarks-detection,face-landmarks-detection-retinaface,mobile0.25mod4lite-32-72,640x640,stm32mp1,lne,CPU,F32,AP-medium,84.0,3.7,0.7,2.9,262.6,5763.9,205.6,6232.2,0.2,0.3,83.2,0.3,0.0,0.0,0.0,0.0,100.0,0.0,0.0,51.1,0.0,0.0,0,,,
face-landmarks-detection,face-landmarks-detection-retinaface,mobile0.25mod4lite-32-72,640x380,stm32mp1,lne,CPU,F32,AP-medium,79.7,2.2,0.7,2.9,164.8,3432.0,121.8,3718.5,0.3,0.5,70.8,0.2,0.0,0.0,0.0,0.0,100.0,0.0,0.0,51.1,0.0,0.0,0,,,
face-landmarks-detection,face-landmarks-detection-retinaface,mobile0.25mod4lite-32-72,640x480,stm32mp1,lne,CPU,F32,AP-medium,82.9,2.8,0.7,2.9,202.4,4303.2,159.3,4664.9,0.2,0.4,78.5,0.3,0.0,0.0,0.0,0.0,100.0,0.0,0.0,51.4,0.0,0.0,0,,,
face-landmarks-detection,face-landmarks-detection-retinaface,mobile0.25mod4lite-48-96,320x320,stm32mp1,lne,CPU,F32,AP-medium,64.0,1.7,1.4,5.7,60.2,2322.0,38.4,2420.6,0.4,0.8,60.9,0.2,0.0,0.0,0.0,0.0,100.0,0.0,0.0,51.2,0.0,0.0,0,,,
face-landmarks-detection,face-landmarks-detection-retinaface,mobile0.25mod4lite-48-96,320x185,stm32mp1,lne,CPU,F32,AP-medium,52.2,1.0,1.4,5.7,37.3,1400.6,23.4,1461.3,0.7,1.4,60.8,0.2,0.0,0.0,0.0,0.0,100.0,0.0,0.0,51.0,0.0,0.0,0,,,
face-landmarks-detection,face-landmarks-detection-retinaface,mobile0.25mod4lite-48-96,320x250,stm32mp1,lne,CPU,F32,AP-medium,62.5,1.3,1.4,5.7,49.6,1877.6,34.7,1962.0,0.5,1.0,60.6,0.2,0.0,0.0,0.0,0.0,100.0,0.0,0.0,50.8,0.0,0.0,0,,,
face-landmarks-detection,face-landmarks-detection-retinaface,mobile0.25mod4lite-48-96,640x640,stm32mp1,lne,CPU,F32,AP-medium,86.0,6.6,1.4,5.7,263.6,9111.7,212.9,9588.2,0.1,0.2,87.9,0.3,0.0,0.0,0.0,0.0,100.0,0.0,0.0,51.2,0.0,0.0,0,,,
face-landmarks-detection,face-landmarks-detection-retinaface,mobile0.25mod4lite-48-96,640x380,stm32mp1,lne,CPU,F32,AP-medium,81.6,3.9,1.4,5.7,161.2,5453.4,124.5,5739.1,0.2,0.3,78.0,0.3,0.0,0.0,0.0,0.0,100.0,0.0,0.0,51.1,0.0,0.0,0,,,
face-landmarks-detection,face-landmarks-detection-retinaface,mobile0.25mod4lite-48-96,640x480,stm32mp1,lne,CPU,F32,AP-medium,84.9,4.9,1.4,5.7,200.4,6899.4,163.9,7263.8,0.1,0.3,83.0,0.3,0.0,0.0,0.0,0.0,100.0,0.0,0.0,51.1,0.0,0.0,0,,,
face-landmarks-detection,face-landmarks-detection-retinaface,mobile0.25mod4lite-64-128,320x320,stm32mp1,lne,CPU,F32,AP-medium,68.4,2.9,2.5,10.0,58.6,3668.9,40.5,3767.9,0.3,0.5,68.3,0.2,0.0,0.0,0.0,0.0,100.0,0.0,0.0,50.8,0.0,0.0,0,,,
face-landmarks-detection,face-landmarks-detection-retinaface,mobile0.25mod4lite-64-128,320x185,stm32mp1,lne,CPU,F32,AP-medium,56.9,1.7,2.5,10.0,34.3,2186.7,24.8,2245.8,0.4,0.9,62.3,0.2,0.0,0.0,0.0,0.0,99.4,0.0,0.0,50.3,0.0,0.0,0,,,
face-landmarks-detection,face-landmarks-detection-retinaface,mobile0.25mod4lite-64-128,320x250,stm32mp1,lne,CPU,F32,AP-medium,66.5,2.3,2.5,10.0,48.7,2940.3,32.3,3021.4,0.3,0.7,63.7,0.2,0.0,0.0,0.0,0.0,99.5,0.0,0.0,51.0,0.0,0.0,0,,,
face-landmarks-detection,face-landmarks-detection-retinaface,mobile0.25mod4lite-64-128,640x640,stm32mp1,lne,CPU,F32,AP-medium,87.3,11.4,2.5,10.0,269.1,14623.5,206.6,15099.2,0.1,0.1,92.0,0.3,0.0,0.0,0.0,0.0,99.7,0.0,0.0,50.8,0.0,0.0,0,,,
face-landmarks-detection,face-landmarks-detection-retinaface,mobile0.25mod4lite-64-128,640x380,stm32mp1,lne,CPU,F32,AP-medium,83.3,6.8,2.5,10.0,151.5,8696.0,127.9,8975.5,0.1,0.2,76.7,0.3,0.0,0.0,0.0,0.0,99.7,0.0,0.0,51.0,0.0,0.0,0,,,
face-landmarks-detection,face-landmarks-detection-retinaface,mobile0.25mod4lite-64-128,640x480,stm32mp1,lne,CPU,F32,AP-medium,86.2,8.6,2.5,10.0,201.5,10913.7,161.3,11276.5,0.1,0.2,85.0,0.3,0.0,0.0,0.0,0.0,99.7,0.0,0.0,50.8,0.0,0.0,0,,,
incar-object-detection,incar-object-detection-nanodet,resnet50,320x320,stm32mp1,lne,CPU,F32,/,/,17.4,24.4,97.4,/,/,/,/,/,/,0.0,0.0,0.0,0.0,0.0,0.0,0.0,0.0,0.0,0.0,0.0,0.0,0,,,
incar-object-detection,incar-object-detection-nanodet,resnet50,640x640,stm32mp1,lne,CPU,F32,/,/,81.4,28.5,114.1,/,/,/,/,/,/,0.0,0.0,0.0,0.0,0.0,0.0,0.0,0.0,0.0,0.0,0.0,0.0,0,,,
incar-object-detection,incar-object-detection-nanodet,resnet50,640x480,stm32mp1,lne,CPU,F32,/,/,52.0,24.4,97.4,/,/,/,/,/,/,0.0,0.0,0.0,0.0,0.0,0.0,0.0,0.0,0.0,0.0,0.0,0.0,0,,,
face-recognition,face-recognition-insightsface-mobilefacenet,mxnet,112x112,stm32mp1,lne,CPU,F32,/,/,0.4,1.0,4.0,10.1,778.0,0.1,788.3,1.3,2.5,41.4,0.1,0.0,0.0,0.0,0.0,99.1,0.0,0.0,49.8,0.0,0.0,0,,,
age-gender-estimation,age-gender-insightface,mobilenet_0_25x,112x112,stm32mp1,lne,CPU,F32,/,/,0.1,0.3,1.1,9.5,163.9,0.1,173.6,5.8,11.5,39.9,0.1,0.0,0.0,0.0,0.0,97.8,0.0,0.0,49.2,0.0,0.0,0,,,
emotion-classification,emotion-classic-light-112x96,default_onnx,96x112,stm32mp1,lne,CPU,F32,/,/,0.4,2.7,10.8,19.7,287.9,0.2,307.7,3.2,6.5,53.3,0.2,0.0,0.0,0.0,0.0,98.6,0.0,0.0,49.4,0.0,0.0,0,,,
emotion-classification,emotion-classic-light-112x96,moonshine_onnx,96x112,stm32mp1,lne,CPU,F32,/,/,0.2,0.1,0.6,18.0,325.0,0.2,343.2,2.9,5.8,49.6,0.1,0.0,0.0,0.0,0.0,98.6,0.0,0.0,49.3,0.0,0.0,0,,,
emotion-classification,emotion-classic-light-112x96,student_g1,96x112,stm32mp1,lne,CPU,F32,/,/,0.6,0.4,1.6,19.0,439.4,0.1,458.5,2.2,4.4,47.4,0.1,0.0,0.0,0.0,0.0,99.1,0.0,0.0,49.2,0.0,0.0,0,,,
emotion-classification,emotion-classic-light-112x96,student_g16,96x112,stm32mp1,lne,CPU,F32,/,/,0.1,0.1,0.3,18.9,314.9,0.2,334.0,3.0,6.0,50.0,0.1,0.0,0.0,0.0,0.0,98.7,0.0,0.0,49.7,0.0,0.0,0,,,
emotion-classification,emotion-classic-light-112x96,student_g2,96x112,stm32mp1,lne,CPU,F32,/,/,0.4,0.2,0.9,19.0,362.9,0.1,382.0,2.6,5.2,49.4,0.1,0.0,0.0,0.0,0.0,98.7,0.0,0.0,49.2,0.0,0.0,0,,,
emotion-classification,emotion-classic-light-112x96,student_g32,96x112,stm32mp1,lne,CPU,F32,/,/,0.1,0.1,0.3,18.9,327.7,0.1,346.7,2.9,5.8,48.6,0.1,0.0,0.0,0.0,0.0,98.8,0.0,0.0,49.5,0.0,0.0,0,,,
emotion-classification,emotion-classic-light-112x96,student_g4,96x112,stm32mp1,lne,CPU,F32,/,/,0.2,0.1,0.6,18.6,323.8,0.1,342.5,2.9,5.8,41.0,0.1,0.0,0.0,0.0,0.0,98.7,0.0,0.0,49.5,0.0,0.0,0,,,
emotion-classification,emotion-classic-light-112x96,student_g8,96x112,stm32mp1,lne,CPU,F32,/,/,0.2,0.1,0.4,18.9,325.1,0.1,344.1,2.9,5.8,50.9,0.1,0.0,0.0,0.0,0.0,98.7,0.0,0.0,49.4,0.0,0.0,0,,,
emotion-classification,emotion-classic-light-112x96,teacher_onnx,96x112,stm32mp1,lne,CPU,F32,/,/,0.5,8.5,33.8,17.7,443.8,0.1,461.7,2.2,4.3,50.5,0.2,0.0,0.0,0.0,0.0,99.1,0.0,0.0,49.0,0.0,0.0,0,,,
eyegaze,eyegaze-rankgaze,mobilefacenet-mpiigaze,224x224,stm32mp1,lne,CPU,F32,Avg MAE,5.66,1.9,4.2,16.6,72.1,3426.5,0.1,3498.7,0.3,0.6,59.6,0.2,0.0,0.0,0.0,0.0,99.6,0.0,0.0,47.6,0.0,0.0,0,,,
eyegaze,eyegaze-rankgaze,mobilefacenet-mpiigaze-righteye-t50,32x32,stm32mp1,lne,CPU,F32,Avg MAE,5.9,0.0,4.1,16.2,1.6,121.8,0.1,123.4,8.1,16.2,55.6,0.2,0.0,0.0,0.0,0.0,97.6,0.0,0.0,46.7,0.0,0.0,0,,,
eyegaze,eyegaze-rankgaze,mobilefacenet-mpiigaze-righteye-t50,48x32,stm32mp1,lne,CPU,F32,Avg MAE,7.25,0.1,4.1,16.2,1.6,147.9,0.1,149.6,6.7,13.4,58.3,0.2,0.0,0.0,0.0,0.0,98.0,0.0,0.0,46.9,0.0,0.0,0,,,
eyegaze,eyegaze-rankgaze,mobilefacenet-mpiigaze-righteye-t50,64x48,stm32mp1,lne,CPU,F32,Avg MAE,6.32,0.1,4.1,16.2,3.0,252.3,0.1,255.4,3.9,7.8,60.8,0.2,0.0,0.0,0.0,0.0,98.4,0.0,0.0,47.1,0.0,0.0,0,,,
eyegaze,eyegaze-rankgaze,mobilefacenet-mpiigaze-righteye-t50,64x64,stm32mp1,lne,CPU,F32,Avg MAE,5.82,0.2,4.1,16.2,3.4,325.4,0.1,328.9,3.0,6.1,61.2,0.2,0.0,0.0,0.0,0.0,98.5,0.0,0.0,47.4,0.0,0.0,0,,,
eyegaze,eyegaze-rankgaze,resnet50-mpiigaze,224x224,stm32mp1,lne,CPU,F32,/,/,8.2,25.6,102.3,/,/,/,/,/,/,0.0,0.0,0.0,0.0,0.0,0.0,0.0,0.0,0.0,0.0,0.0,0.0,0,,,
headpose-estimation,headpose-rankpose,mobilefacenetfc512,192x224,stm32mp1,lne,CPU,F32,Avg MAE,4.63,1.6,6.3,25.2,28.2,2683.3,0.1,2711.5,0.4,0.7,46.5,0.2,0.0,0.0,0.0,0.0,99.5,0.0,0.0,50.1,0.0,0.0,0,,,
headpose-estimation,headpose-rankpose,mobilefacenetfc512,224x224,stm32mp1,lne,CPU,F32,Avg MAE,4.43,1.9,6.3,25.3,33.7,3466.1,0.1,3499.9,0.3,0.6,44.3,0.2,0.0,0.0,0.0,0.0,99.6,0.0,0.0,50.4,0.0,0.0,0,,,
headpose-estimation,headpose-rankpose,mobilefacenetfc512,96x112,stm32mp1,lne,CPU,F32,Avg MAE,4.63,0.4,6.2,25.0,10.7,735.9,0.2,746.8,1.3,2.7,45.1,0.2,0.0,0.0,0.0,0.0,99.1,0.0,0.0,50.0,0.0,0.0,0,,,
headpose-estimation,headpose-rankpose,mobilefacenetfc512onlypose,96x112,stm32mp1,lne,CPU,F32,Avg MAE,4.34,0.4,3.0,12.1,10.2,750.9,0.1,761.1,1.3,2.6,44.7,0.1,0.0,0.0,0.0,0.0,99.1,0.0,0.0,49.7,0.0,0.0,0,,,
headpose-estimation,headpose-rankpose,mobilefacenetonlyposefc512,112x112,stm32mp1,lne,CPU,F32,Avg MAE,4.38,0.5,3.0,12.1,12.0,879.8,0.1,891.9,1.1,2.2,41.1,0.1,0.0,0.0,0.0,0.0,99.3,0.0,0.0,49.7,0.0,0.0,0,,,
headpose-estimation,headpose-rankpose,resnet50,224x224,stm32mp1,lne,CPU,F32,/,/,8.2,23.8,95.1,/,/,/,/,/,/,0.0,0.0,0.0,0.0,0.0,0.0,0.0,0.0,0.0,0.0,0.0,0.0,0,,,
imagenet,imagenet-efficientb0,default,224x224,stm32mp1,lne,CPU,F32,Accuracy top-1,77.1,0.8,5.3,21.1,33.5,2855.4,0.1,2889.0,0.3,0.7,57.1,0.2,0.0,0.0,0.0,0.0,99.5,0.0,0.0,49.8,0.0,0.0,0,,,
imagenet,imagenet-googlenet,benchmark,224x224,stm32mp1,lne,CPU,F32,Accuracy top-1,66.5,3.2,7.0,28.0,31.4,3180.6,0.1,3212.2,0.3,0.6,73.4,0.3,0.0,0.0,0.0,0.0,99.5,0.0,0.0,49.9,0.0,0.0,0,,,
imagenet,imagenet-mobilenet,default,224x224,stm32mp1,lne,CPU,F32,Accuracy top-1,69.5,1.1,4.2,16.9,32.1,1745.0,0.1,1777.3,0.6,1.1,50.8,0.2,0.0,0.0,0.0,0.0,99.4,0.0,0.0,50.0,0.0,0.0,0,,,
imagenet,imagenet-mobilenet-v2,fp32,224x224,stm32mp1,lne,CPU,F32,Accuracy top-1,71.8,0.6,3.5,14.0,30.5,1284.6,0.1,1315.2,0.8,1.5,49.8,0.2,0.0,0.0,0.0,0.0,99.1,0.0,0.0,50.0,0.0,0.0,0,,,
imagenet,imagenet-mobilenetv3,large,223x224,stm32mp1,lne,CPU,F32,Accuracy top-1,75.2,0.4,5.5,21.9,35.4,873.3,0.1,908.8,1.1,2.2,54.6,0.2,0.0,0.0,0.0,0.0,99.0,0.0,0.0,49.8,0.0,0.0,0,,,
imagenet,imagenet-mobilenetv3,small,223x224,stm32mp1,lne,CPU,F32,Accuracy top-1,67.4,0.1,2.9,11.8,31.0,279.6,0.1,310.8,3.2,6.4,50.0,0.2,0.0,0.0,0.0,0.0,98.0,0.0,0.0,49.6,0.0,0.0,0,,,
imagenet,imagenet-resnet-resnet18,benchmark,224x224,stm32mp1,lne,CPU,F32,Accuracy top-1,69.6,3.7,11.7,46.8,32.8,2755.0,0.5,2788.2,0.4,0.7,95.0,0.3,0.0,0.0,0.0,0.0,99.5,0.0,0.0,50.0,0.0,0.0,0,,,
imagenet,imagenet-resnet-resnet32,caffe,224x224,stm32mp1,lne,CPU,F32,Accuracy top-1,73.3,4.6,20.7,82.9,33.2,5128.2,0.1,5161.5,0.2,0.4,78.9,0.3,0.0,0.0,0.0,0.0,99.6,0.0,0.0,49.9,0.0,0.0,0,,,
imagenet,imagenet-resnet-resnet50,onnx,224x224,stm32mp1,lne,CPU,F32,Accuracy top-1,76.0,7.7,25.5,102.1,/,/,/,/,/,/,0.0,0.0,0.0,0.0,0.0,0.0,0.0,0.0,0.0,0.0,0.0,0.0,0,,,
imagenet,imagenet-squeezenet,benchmark,227x227,stm32mp1,lne,CPU,F32,Accuracy top-1,58.2,0.8,1.2,4.9,34.8,870.9,0.1,905.9,1.1,2.2,48.0,0.2,0.0,0.0,0.0,0.0,98.9,0.0,0.0,49.8,0.0,0.0,0,,,
